<?xml version="1.0" encoding="UTF-8" ?>
<testsuite errors="0" failures="0" hostname="A104-15" name="cat.iesjoaquimmir.geoapp.model.businesslayer.entities.RectangleTest" skipped="0" tests="16" time="0.136" timestamp="2019-12-17T18:54:11">
  <properties>
    <property name="libs.spring-framework300.classpath" value="/home/tarda/Baixades/netbeans/ide/modules/org-apache-commons-logging.jar:/home/tarda/Baixades/netbeans/java/modules/ext/cglib-2.2.jar:/home/tarda/Baixades/netbeans/java/modules/ext/spring-3.0/spring-aop-3.2.7.RELEASE.jar:/home/tarda/Baixades/netbeans/java/modules/ext/spring-3.0/spring-aspects-3.2.7.RELEASE.jar:/home/tarda/Baixades/netbeans/java/modules/ext/spring-3.0/spring-beans-3.2.7.RELEASE.jar:/home/tarda/Baixades/netbeans/java/modules/ext/spring-3.0/spring-build-src-3.2.7.RELEASE.jar:/home/tarda/Baixades/netbeans/java/modules/ext/spring-3.0/spring-context-3.2.7.RELEASE.jar:/home/tarda/Baixades/netbeans/java/modules/ext/spring-3.0/spring-context-support-3.2.7.RELEASE.jar:/home/tarda/Baixades/netbeans/java/modules/ext/spring-3.0/spring-core-3.2.7.RELEASE.jar:/home/tarda/Baixades/netbeans/java/modules/ext/spring-3.0/spring-expression-3.2.7.RELEASE.jar:/home/tarda/Baixades/netbeans/java/modules/ext/spring-3.0/spring-framework-bom-3.2.7.RELEASE.jar:/home/tarda/Baixades/netbeans/java/modules/ext/spring-3.0/spring-instrument-3.2.7.RELEASE.jar:/home/tarda/Baixades/netbeans/java/modules/ext/spring-3.0/spring-instrument-tomcat-3.2.7.RELEASE.jar:/home/tarda/Baixades/netbeans/java/modules/ext/spring-3.0/spring-jdbc-3.2.7.RELEASE.jar:/home/tarda/Baixades/netbeans/java/modules/ext/spring-3.0/spring-jms-3.2.7.RELEASE.jar:/home/tarda/Baixades/netbeans/java/modules/ext/spring-3.0/spring-orm-3.2.7.RELEASE.jar:/home/tarda/Baixades/netbeans/java/modules/ext/spring-3.0/spring-oxm-3.2.7.RELEASE.jar:/home/tarda/Baixades/netbeans/java/modules/ext/spring-3.0/spring-struts-3.2.7.RELEASE.jar:/home/tarda/Baixades/netbeans/java/modules/ext/spring-3.0/spring-test-3.2.7.RELEASE.jar:/home/tarda/Baixades/netbeans/java/modules/ext/spring-3.0/spring-tx-3.2.7.RELEASE.jar:/home/tarda/Baixades/netbeans/java/modules/ext/spring-3.0/spring-web-3.2.7.RELEASE.jar:/home/tarda/Baixades/netbeans/java/modules/ext/spring-3.0/spring-webmvc-3.2.7.RELEASE.jar:/home/tarda/Baixades/netbeans/java/modules/ext/spring-3.0/spring-webmvc-portlet-3.2.7.RELEASE.jar" />
    <property name="libs.javaee-api-6.0.classpath" value="/home/tarda/Baixades/netbeans/enterprise/modules/ext/javaee-api-6.0.jar" />
    <property name="javac.test.classpath" value=":build/classes:/home/tarda/NetBeansProjects/clase_java/GeoApp/lib/junit_4/junit-4.12.jar:/home/tarda/NetBeansProjects/clase_java/GeoApp/lib/hamcrest/hamcrest-core-1.3.jar" />
    <property name="javac.includesfile.binary" value="/home/tarda/NetBeansProjects/clase_java/GeoApp/null836261273" />
    <property name="libs.javaee-api-7.0.classpath" value="/home/tarda/Baixades/netbeans/enterprise/modules/ext/javaee-api-7.0.jar" />
    <property name="java.specification.version" value="13" />
    <property name="libs.restapi.maven-pom" value="" />
    <property name="jar.index.metainf" value="false" />
    <property name="javadoc.preview" value="true" />
    <property name="do.depend" value="false" />
    <property name="libs.spring-webmvc4.0.javadoc" value="" />
    <property name="libs.spring-framework400.classpath" value="/home/tarda/Baixades/netbeans/ide/modules/org-apache-commons-logging.jar:/home/tarda/Baixades/netbeans/java/modules/ext/cglib-2.2.jar:/home/tarda/Baixades/netbeans/java/modules/ext/spring-4/spring-aop-4.0.1.RELEASE.jar:/home/tarda/Baixades/netbeans/java/modules/ext/spring-4/spring-aspects-4.0.1.RELEASE.jar:/home/tarda/Baixades/netbeans/java/modules/ext/spring-4/spring-beans-4.0.1.RELEASE.jar:/home/tarda/Baixades/netbeans/java/modules/ext/spring-4/spring-build-src-4.0.1.RELEASE.jar:/home/tarda/Baixades/netbeans/java/modules/ext/spring-4/spring-context-4.0.1.RELEASE.jar:/home/tarda/Baixades/netbeans/java/modules/ext/spring-4/spring-context-support-4.0.1.RELEASE.jar:/home/tarda/Baixades/netbeans/java/modules/ext/spring-4/spring-core-4.0.1.RELEASE.jar:/home/tarda/Baixades/netbeans/java/modules/ext/spring-4/spring-expression-4.0.1.RELEASE.jar:/home/tarda/Baixades/netbeans/java/modules/ext/spring-4/spring-framework-bom-4.0.1.RELEASE.jar:/home/tarda/Baixades/netbeans/java/modules/ext/spring-4/spring-instrument-4.0.1.RELEASE.jar:/home/tarda/Baixades/netbeans/java/modules/ext/spring-4/spring-instrument-tomcat-4.0.1.RELEASE.jar:/home/tarda/Baixades/netbeans/java/modules/ext/spring-4/spring-jdbc-4.0.1.RELEASE.jar:/home/tarda/Baixades/netbeans/java/modules/ext/spring-4/spring-jms-4.0.1.RELEASE.jar:/home/tarda/Baixades/netbeans/java/modules/ext/spring-4/spring-messaging-4.0.1.RELEASE.jar:/home/tarda/Baixades/netbeans/java/modules/ext/spring-4/spring-orm-4.0.1.RELEASE.jar:/home/tarda/Baixades/netbeans/java/modules/ext/spring-4/spring-oxm-4.0.1.RELEASE.jar:/home/tarda/Baixades/netbeans/java/modules/ext/spring-4/spring-test-4.0.1.RELEASE.jar:/home/tarda/Baixades/netbeans/java/modules/ext/spring-4/spring-tx-4.0.1.RELEASE.jar:/home/tarda/Baixades/netbeans/java/modules/ext/spring-4/spring-web-4.0.1.RELEASE.jar:/home/tarda/Baixades/netbeans/java/modules/ext/spring-4/spring-webmvc-4.0.1.RELEASE.jar:/home/tarda/Baixades/netbeans/java/modules/ext/spring-4/spring-webmvc-portlet-4.0.1.RELEASE.jar:/home/tarda/Baixades/netbeans/java/modules/ext/spring-4/spring-websocket-4.0.1.RELEASE.jar" />
    <property name="test.binaryincludes" value="&lt;nothing&gt;" />
    <property name="sun.arch.data.model" value="64" />
    <property name="nb.show.statistics.ui" value="usageStatisticsEnabled" />
    <property name="libs.javaee-endorsed-api-7.0.src" value="" />
    <property name="debug-transport" value="dt_socket" />
    <property name="sun.font.fontmanager" value="sun.awt.X11FontManager" />
    <property name="java.vendor.url" value="https://java.oracle.com/" />
    <property name="annotation.processing.enabled" value="true" />
    <property name="libs.junit_5.src" value="/home/tarda/Baixades/netbeans/platform/docs/junit-jupiter-api-5.3.1-sources.jar:/home/tarda/Baixades/netbeans/platform/docs/junit-jupiter-params-5.3.1-sources.jar:/home/tarda/Baixades/netbeans/platform/docs/junit-jupiter-engine-5.3.1-sources.jar" />
    <property name="libs.jaxb.classpath" value="/home/tarda/Baixades/netbeans/ide/modules/ext/jaxb/jaxb-impl-2.2.5-2.jar:/home/tarda/Baixades/netbeans/ide/modules/ext/jaxb/jaxb-xjc-2.2.5-2.jar:/home/tarda/Baixades/netbeans/ide/modules/ext/jaxb/jaxb1-impl-2.2.5-2.jar:/home/tarda/Baixades/netbeans/ide/modules/ext/jaxb/activation.jar:/home/tarda/Baixades/netbeans/ide/modules/ext/jaxb/api/jaxb-api.jar" />
    <property name="debug.modulepath" value="" />
    <property name="libs.eclipselink.javadoc" value="" />
    <property name="libs.jsp-compilation.src" value="" />
    <property name="libs.JWSAntTasks.javadoc" value="" />
    <property name="sun.boot.library.path" value="/usr/local/jdk-13/lib" />
    <property name="sun.java.command" value="org.apache.tools.ant.taskdefs.optional.junit.JUnitTestRunner cat.iesjoaquimmir.geoapp.model.businesslayer.entities.RectangleTest skipNonTests=false filtertrace=true haltOnError=false haltOnFailure=false showoutput=true outputtoformatters=true logfailedtests=true threadid=0 logtestlistenerevents=true formatter=org.apache.tools.ant.taskdefs.optional.junit.BriefJUnitResultFormatter formatter=org.apache.tools.ant.taskdefs.optional.junit.XMLJUnitResultFormatter,/home/tarda/NetBeansProjects/clase_java/GeoApp/build/test/results/TEST-cat.iesjoaquimmir.geoapp.model.businesslayer.entities.RectangleTest.xml crashfile=/home/tarda/NetBeansProjects/clase_java/GeoApp/build/junitvmwatcher18104436110204590142.properties propsfile=/home/tarda/NetBeansProjects/clase_java/GeoApp/build/junit17175365844165115967.properties" />
    <property name="libs.CopyLibs.src" value="" />
    <property name="jdk.debug" value="release" />
    <property name="libs.spring-framework300.src" value="" />
    <property name="java.specification.vendor" value="Oracle Corporation" />
    <property name="javac.source" value="1.8" />
    <property name="javadoc.use" value="true" />
    <property name="libs.javac-api.maven-pom" value="" />
    <property name="javadoc.notree" value="false" />
    <property name="java.version.date" value="2019-09-17" />
    <property name="libs.CopyLibs.displayName" value="CopyLibs Task" />
    <property name="java.home" value="/usr/local/jdk-13" />
    <property name="basedir" value="/home/tarda/NetBeansProjects/clase_java/GeoApp" />
    <property name="libs.CopyLibs.prop-version" value="3.0" />
    <property name="work.dir" value="/home/tarda/NetBeansProjects/clase_java/GeoApp" />
    <property name="java.specification.name" value="Java Platform API Specification" />
    <property name="jna.boot.library.name" value="jnidispatch-440" />
    <property name="javac.test.compilerargs" value="" />
    <property name="java.vm.specification.vendor" value="Oracle Corporation" />
    <property name="libs.PostgreSQLDriver.classpath" value="/home/tarda/Baixades/netbeans/ide/modules/ext/postgresql-42.2.5.jar" />
    <property name="libs.javac-api.javadoc" value="" />
    <property name="libs.spring-webmvc3.0.javadoc" value="" />
    <property name="libs.JAXB-ENDORSED.src" value="" />
    <property name="libs.jsf20.classpath" value="/home/tarda/Baixades/netbeans/enterprise/modules/ext/jsf-2_2/javax.faces.jar" />
    <property name="netbeans.extbrowser.manual_chrome_plugin_install" value="yes" />
    <property name="manifest.encoding" value="UTF-8" />
    <property name="netbeans.default_userdir_root" value="/home/tarda/.netbeans" />
    <property name="sun.management.compiler" value="HotSpot 64-Bit Tiered Compilers" />
    <property name="libs.spring-framework400.src" value="" />
    <property name="libs.jsp-compilation-syscp.src" value="" />
    <property name="jdk.home" value="/usr/local/jdk-13" />
    <property name="run.test.modulepath" value="" />
    <property name="java.runtime.version" value="13+33" />
    <property name="libs.maven-dependencies.src" value="" />
    <property name="libs.hamcrest.displayName" value="Hamcrest 1.3" />
    <property name="libs.eclipselink.maven-pom" value="" />
    <property name="libs.javaee-web-api-6.0.classpath" value="/home/tarda/Baixades/netbeans/enterprise/modules/ext/javaee-web-api-6.0.jar" />
    <property name="libs.jsp-compiler.javadoc" value="" />
    <property name="libs.metro.maven-pom" value="" />
    <property name="libs.JAXB-ENDORSED.javadoc" value="" />
    <property name="debug.test.modulepath" value="" />
    <property name="org.openide.awt.SwingBrowserImpl.do-not-block-awt" value="false" />
    <property name="libs.javaee-web-api-7.0.classpath" value="/home/tarda/Baixades/netbeans/enterprise/modules/ext/javaee-web-api-7.0.jar" />
    <property name="file.encoding" value="UTF-8" />
    <property name="sun.java2d.noddraw" value="true" />
    <property name="sun.zip.disableMemoryMapping" value="true" />
    <property name="java.util.logging.config.class" value="org.netbeans.core.startup.TopLogging" />
    <property name="guice.disable.misplaced.annotation.check" value="true" />
    <property name="libs.maven-dependencies.maven-pom" value="" />
    <property name="https.nonProxyHosts" value="localhost|127.0.0.1|A104-15" />
    <property name="libs.jsf12.src" value="" />
    <property name="libs.primefaces.javadoc" value="" />
    <property name="libs.jsp-compilation.javadoc" value="" />
    <property name="libs.restlib.javadoc" value="" />
    <property name="libs.groovy-all.maven-pom" value="" />
    <property name="libs.restapi.src" value="" />
    <property name="libs.junit_5.javadoc" value="/home/tarda/Baixades/netbeans/platform/docs/junit-jupiter-api-5.3.1-javadoc.jar:/home/tarda/Baixades/netbeans/platform/docs/junit-jupiter-params-5.3.1-javadoc.jar:/home/tarda/Baixades/netbeans/platform/docs/junit-jupiter-engine-5.3.1-javadoc.jar" />
    <property name="libs.absolutelayout.classpath" value="/home/tarda/Baixades/netbeans/java/modules/ext/AbsoluteLayout.jar" />
    <property name="dist.archive.excludes" value="" />
    <property name="java.io.tmpdir" value="/tmp" />
    <property name="do.archive" value="true" />
    <property name="java.version" value="13" />
    <property name="libraries.basename" value="nblibraries" />
    <property name="libs.struts.maven-pom" value="" />
    <property name="java.vm.specification.name" value="Java Virtual Machine Specification" />
    <property name="built-jar.properties" value="/home/tarda/NetBeansProjects/clase_java/GeoApp/build/built-jar.properties" />
    <property name="nb.native.filechooser" value="false" />
    <property name="libs.testng.src" value="" />
    <property name="java.library.path" value="/usr/java/packages/lib:/usr/lib64:/lib64:/lib:/usr/lib" />
    <property name="libs.hamcrest.src" value="" />
    <property name="platform.active" value="default_platform" />
    <property name="java.vendor" value="Oracle Corporation" />
    <property name="manifest.file" value="manifest.mf" />
    <property name="libs.testng.javadoc" value="/home/tarda/Baixades/netbeans/platform/docs/testng-6.8.1-javadoc.zip" />
    <property name="libs.groovy-all.src" value="" />
    <property name="meta.inf.dir" value="src/META-INF" />
    <property name="sun.io.unicode.encoding" value="UnicodeLittle" />
    <property name="libs.testng.maven-pom" value="" />
    <property name="libs.struts.javadoc" value="/home/tarda/Baixades/netbeans/enterprise/docs/struts-1.3.10-javadoc.zip" />
    <property name="org.openide.version" value="deprecated" />
    <property name="default.javac.source" value="13" />
    <property name="netbeans.dynamic.classpath" value="/home/tarda/Baixades/netbeans/platform/core/core-base.jar:/home/tarda/Baixades/netbeans/platform/core/core.jar:/home/tarda/Baixades/netbeans/platform/core/org-openide-filesystems.jar:/home/tarda/Baixades/netbeans/platform/core/org-openide-filesystems-compat8.jar:/home/tarda/Baixades/netbeans/platform/core/asm-all-5.0.1.jar:/home/tarda/Baixades/netbeans/platform/core/org-netbeans-libs-asm.jar:/home/tarda/Baixades/netbeans/nb/core/org-netbeans-upgrader.jar:/home/tarda/Baixades/netbeans/nb/core/locale/core_nb.jar" />
    <property name="test.includes" value="cat/iesjoaquimmir/geoapp/model/businesslayer/entities/RectangleTest.java" />
    <property name="run.classpath" value=":build/classes" />
    <property name="libs.jaxb.src" value="" />
    <property name="libs.eclipselinkmodelgen.classpath" value="/home/tarda/Baixades/netbeans/java/modules/ext/eclipselink/org.eclipse.persistence.jpa.modelgen.processor-2.5.2.jar" />
    <property name="sun.awt.enableExtraMouseButtons" value="true" />
    <property name="test.src.dir" value="test" />
    <property name="org.openide.major.version" value="IDE/1" />
    <property name="libs.spring-framework300.javadoc" value="" />
    <property name="netbeans.buildnumber" value="incubator-netbeans-release-404-on-20190319" />
    <property name="ap.proc.none.internal" value="" />
    <property name="org.openide.specification.version" value="6.2" />
    <property name="endorsed.classpath.cmd.line.arg" value="" />
    <property name="user.timezone" value="Europe/Madrid" />
    <property name="libs.jpa20-persistence.maven-pom" value="" />
    <property name="jar.index" value="false" />
    <property name="libs.jpa20-persistence.classpath" value="/home/tarda/Baixades/netbeans/java/modules/ext/eclipselink/javax.persistence-2.1.0.jar" />
    <property name="libs.junit_5.classpath" value="/home/tarda/Baixades/netbeans/platform/modules/ext/junit-jupiter-api-5.3.1.jar:/home/tarda/Baixades/netbeans/platform/modules/ext/junit-jupiter-params-5.3.1.jar:/home/tarda/Baixades/netbeans/platform/modules/ext/junit-jupiter-engine-5.3.1.jar" />
    <property name="build.sysclasspath" value="ignore" />
    <property name="java.vm.specification.version" value="13" />
    <property name="os.name" value="Linux" />
    <property name="libs.CopyLibs.maven-pom" value="" />
    <property name="libs.eclipselinkmodelgen.javadoc" value="" />
    <property name="javadoc.noindex" value="false" />
    <property name="jdkBug6558476" value="false" />
    <property name="javadoc.private" value="false" />
    <property name="libs.spring-webmvc4.0.maven-pom" value="" />
    <property name="javadoc.author" value="false" />
    <property name="http.nonProxyHosts" value="localhost|127.0.0.1|A104-15" />
    <property name="main.class" value="cat.iesjoaquimmir.geoapp.views.console.Application" />
    <property name="ant.file.GeoApp" value="/home/tarda/NetBeansProjects/clase_java/GeoApp/build.xml" />
    <property name="libs.JAXB-ENDORSED.maven-pom" value="" />
    <property name="user.home" value="/home/tarda" />
    <property name="libs.jsp-compilation-syscp.javadoc" value="" />
    <property name="source.encoding" value="UTF-8" />
    <property name="libs.eclipselinkmodelgen.maven-pom" value="" />
    <property name="jar.compress" value="false" />
    <property name="ant.file.type.GeoApp-impl" value="file" />
    <property name="have.sources" value="true" />
    <property name="libs.javaee-api-7.0.javadoc" value="/home/tarda/Baixades/netbeans/enterprise/docs/javaee-doc-api.jar" />
    <property name="annotation.processing.processors.list" value="" />
    <property name="javac.deprecation" value="false" />
    <property name="libs.jsf20.maven-pom" value="" />
    <property name="libs.junit_4.prop-maven-dependencies" value="junit:junit:4.12:jar" />
    <property name="libs.junit_4.displayName" value="JUnit 4.12" />
    <property name="libs.restlib.classpath" value="/home/tarda/Baixades/netbeans/enterprise/modules/ext/jersey2/ext/asm-all-repackaged-2.2.0-b21.jar:/home/tarda/Baixades/netbeans/enterprise/modules/ext/jersey2/ext/cglib-2.2.0-b21.jar:/home/tarda/Baixades/netbeans/enterprise/modules/ext/jersey2/ext/guava-14.0.1.jar:/home/tarda/Baixades/netbeans/enterprise/modules/ext/jersey2/ext/hk2-api-2.2.0-b21.jar:/home/tarda/Baixades/netbeans/enterprise/modules/ext/jersey2/ext/hk2-locator-2.2.0-b21.jar:/home/tarda/Baixades/netbeans/enterprise/modules/ext/jersey2/ext/hk2-utils-2.2.0-b21.jar:/home/tarda/Baixades/netbeans/enterprise/modules/ext/jersey2/ext/javax.annotation-api-1.2.jar:/home/tarda/Baixades/netbeans/enterprise/modules/ext/jersey2/ext/javax.inject-2.2.0-b21.jar:/home/tarda/Baixades/netbeans/enterprise/modules/ext/jersey2/ext/javax.servlet-api-3.0.1.jar:/home/tarda/Baixades/netbeans/enterprise/modules/ext/jersey2/ext/jaxb-api-2.2.7.jar:/home/tarda/Baixades/netbeans/enterprise/modules/ext/jersey2/ext/jersey-entity-filtering-2.5.1.jar:/home/tarda/Baixades/netbeans/enterprise/modules/ext/jersey2/ext/jersey-media-moxy-2.5.1.jar:/home/tarda/Baixades/netbeans/enterprise/modules/ext/jersey2/ext/org.osgi.core-4.2.0.jar:/home/tarda/Baixades/netbeans/enterprise/modules/ext/jersey2/ext/osgi-resource-locator-1.0.1.jar:/home/tarda/Baixades/netbeans/enterprise/modules/ext/jersey2/ext/persistence-api-1.0.jar:/home/tarda/Baixades/netbeans/enterprise/modules/ext/jersey2/ext/validation-api-1.1.0.Final.jar:/home/tarda/Baixades/netbeans/enterprise/modules/ext/jersey2/jersey-client.jar:/home/tarda/Baixades/netbeans/enterprise/modules/ext/jersey2/jersey-common.jar:/home/tarda/Baixades/netbeans/enterprise/modules/ext/jersey2/jersey-container-servlet.jar:/home/tarda/Baixades/netbeans/enterprise/modules/ext/jersey2/jersey-container-servlet-core.jar:/home/tarda/Baixades/netbeans/enterprise/modules/ext/jersey2/jersey-server.jar" />
    <property name="build.generated.sources.dir" value="build/generated-sources" />
    <property name="apple.awt.graphics.UseQuartz" value="true" />
    <property name="plugin.manager.check.updates" value="false" />
    <property name="run.jvmargs" value="" />
    <property name="libs.primefaces.src" value="" />
    <property name="netbeans.autoupdate.language" value="ca" />
    <property name="libraries.path" value="/home/tarda/NetBeansProjects/clase_java/GeoApp/lib/nblibraries.properties" />
    <property name="ant.file.type.GeoApp" value="file" />
    <property name="build.compiler.emacs" value="true" />
    <property name="libs.eclipselinkmodelgen.src" value="" />
    <property name="build.classes.excludes" value="**/*.java,**/*.form" />
    <property name="dist.jar" value="dist/GeoApp.jar" />
    <property name="ant.file" value="/home/tarda/NetBeansProjects/clase_java/GeoApp/build.xml" />
    <property name="libs.struts.src" value="" />
    <property name="libs.spring-webmvc4.0.classpath" value="/home/tarda/Baixades/netbeans/java/modules/ext/spring-4/spring-webmvc-4.0.1.RELEASE.jar" />
    <property name="path.separator" value=":" />
    <property name="libs.javaee-endorsed-api-7.0.javadoc" value="/home/tarda/Baixades/netbeans/enterprise/docs/javaee-doc-api.jar" />
    <property name="os.version" value="4.9.0-9-amd64" />
    <property name="libs.JAXB-ENDORSED.classpath" value="/home/tarda/Baixades/netbeans/ide/modules/ext/jaxb/api/jaxb-api.jar" />
    <property name="libs.restlib.src" value="" />
    <property name="netbeans.home" value="/home/tarda/Baixades/netbeans/platform" />
    <property name="libs.CopyLibs.javadoc" value="" />
    <property name="debug-transport-by-os" value="dt_socket" />
    <property name="build.test.results.dir" value="build/test/results" />
    <property name="libs.jsf20.src" value="" />
    <property name="libs.jaxws21.javadoc" value="/home/tarda/Baixades/netbeans/java/docs/jaxws-api-doc.zip" />
    <property name="libs.spring-framework400.maven-pom" value="" />
    <property name="ap.processors.internal" value="" />
    <property name="java.vm.name" value="Java HotSpot(TM) 64-Bit Server VM" />
    <property name="libs.jstl.javadoc" value="/home/tarda/Baixades/netbeans/enterprise/docs/javaee-doc-api.jar" />
    <property name="libs.javaee-endorsed-api-7.0.maven-pom" value="" />
    <property name="libs.jsf12.classpath" value="/home/tarda/Baixades/netbeans/enterprise/modules/ext/jsf-1_2/jsf-api.jar:/home/tarda/Baixades/netbeans/enterprise/modules/ext/jsf-1_2/jsf-impl.jar" />
    <property name="libs.jaxws21.classpath" value="/home/tarda/Baixades/netbeans/java/modules/ext/jaxws22/FastInfoset.jar:/home/tarda/Baixades/netbeans/java/modules/ext/jaxws22/gmbal-api-only.jar:/home/tarda/Baixades/netbeans/java/modules/ext/jaxws22/ha-api.jar:/home/tarda/Baixades/netbeans/java/modules/ext/jaxws22/javax.mail_1.4.jar:/home/tarda/Baixades/netbeans/java/modules/ext/jaxws22/jaxws-rt.jar:/home/tarda/Baixades/netbeans/java/modules/ext/jaxws22/jaxws-tools.jar:/home/tarda/Baixades/netbeans/java/modules/ext/jaxws22/management-api.jar:/home/tarda/Baixades/netbeans/java/modules/ext/jaxws22/mimepull.jar:/home/tarda/Baixades/netbeans/java/modules/ext/jaxws22/policy.jar:/home/tarda/Baixades/netbeans/java/modules/ext/jaxws22/saaj-impl.jar:/home/tarda/Baixades/netbeans/java/modules/ext/jaxws22/stax-ex.jar:/home/tarda/Baixades/netbeans/java/modules/ext/jaxws22/stax2-api.jar:/home/tarda/Baixades/netbeans/java/modules/ext/jaxws22/streambuffer.jar:/home/tarda/Baixades/netbeans/java/modules/ext/jaxws22/woodstox-core-asl.jar:/home/tarda/Baixades/netbeans/java/modules/ext/jaxws22/api/jaxws-api.jar:/home/tarda/Baixades/netbeans/java/modules/ext/jaxws22/api/jsr181-api.jar:/home/tarda/Baixades/netbeans/java/modules/ext/jaxws22/api/javax.annotation.jar:/home/tarda/Baixades/netbeans/java/modules/ext/jaxws22/api/saaj-api.jar:/home/tarda/Baixades/netbeans/ide/modules/ext/jaxb/activation.jar:/home/tarda/Baixades/netbeans/ide/modules/ext/jaxb/api/jaxb-api.jar" />
    <property name="libs.restapi.classpath" value="/home/tarda/Baixades/netbeans/enterprise/modules/ext/jaxrs-2.0/javax.ws.rs-api-2.0.jar" />
    <property name="os.arch" value="amd64" />
    <property name="libs.hamcrest.javadoc" value="" />
    <property name="build.generated.dir" value="build/generated" />
    <property name="libs.spring-framework400.javadoc" value="" />
    <property name="libs.javac-api.src" value="" />
    <property name="libs.groovy-all.javadoc" value="" />
    <property name="libs.javaee-web-api-7.0.javadoc" value="/home/tarda/Baixades/netbeans/enterprise/docs/javaee-doc-api.jar" />
    <property name="java.vm.info" value="mixed mode, sharing" />
    <property name="libs.primefaces.classpath" value="/home/tarda/Baixades/netbeans/enterprise/modules/ext/primefaces/primefaces-5.0.jar" />
    <property name="libs.jaxws21.maven-pom" value="" />
    <property name="run.test.classpath" value=":build/classes:/home/tarda/NetBeansProjects/clase_java/GeoApp/lib/junit_4/junit-4.12.jar:/home/tarda/NetBeansProjects/clase_java/GeoApp/lib/hamcrest/hamcrest-core-1.3.jar:build/test/classes" />
    <property name="libs.jsf12.maven-pom" value="" />
    <property name="libs.javaee-endorsed-api-7.0.classpath" value="/home/tarda/Baixades/netbeans/enterprise/modules/ext/javaee7-endorsed/javax.annotation-api.jar:/home/tarda/Baixades/netbeans/enterprise/modules/ext/javaee7-endorsed/javax.xml.soap-api.jar:/home/tarda/Baixades/netbeans/enterprise/modules/ext/javaee7-endorsed/jaxb-api-osgi.jar:/home/tarda/Baixades/netbeans/enterprise/modules/ext/javaee7-endorsed/jaxws-api.jar:/home/tarda/Baixades/netbeans/enterprise/modules/ext/javaee7-endorsed/jsr181-api.jar" />
    <property name="javadoc.encoding.used" value="UTF-8" />
    <property name="java.class.version" value="57.0" />
    <property name="src.dir" value="src" />
    <property name="libs.primefaces.maven-pom" value="" />
    <property name="org.netbeans.io.suspend" value="0" />
    <property name="debug.classpath" value=":build/classes" />
    <property name="ant.project.default-target" value="default" />
    <property name="excludes" value="" />
    <property name="libs.javaee-api-7.0.src" value="" />
    <property name="ant.project.name" value="GeoApp" />
    <property name="dist.javadoc.dir" value="dist/javadoc" />
    <property name="sun.jnu.encoding" value="UTF-8" />
    <property name="run.test.jvmargs" value="" />
    <property name="libs.junit_4.javadoc" value="/home/tarda/NetBeansProjects/clase_java/GeoApp/lib/junit_4/junit-4.12-javadoc.jar" />
    <property name="default.javac.target" value="13" />
    <property name="javac.fork" value="true" />
    <property name="libs.spring-webmvc4.0.src" value="" />
    <property name="libs.eclipselink.classpath" value="/home/tarda/Baixades/netbeans/java/modules/ext/eclipselink/org.eclipse.persistence.core-2.5.2.jar:/home/tarda/Baixades/netbeans/java/modules/ext/eclipselink/org.eclipse.persistence.asm-2.5.2.jar:/home/tarda/Baixades/netbeans/java/modules/ext/eclipselink/org.eclipse.persistence.antlr-2.5.2.jar:/home/tarda/Baixades/netbeans/java/modules/ext/eclipselink/org.eclipse.persistence.jpa-2.5.2.jar:/home/tarda/Baixades/netbeans/java/modules/ext/eclipselink/org.eclipse.persistence.jpa.jpql-2.5.2.jar:/home/tarda/Baixades/netbeans/java/modules/ext/eclipselink/javax.persistence-2.1.0.jar" />
    <property name="sun.java2d.dpiaware" value="true" />
    <property name="main.class.available" value="true" />
    <property name="libs.javac-api.classpath" value="" />
    <property name="libs.jsf20.javadoc" value="/home/tarda/Baixades/netbeans/enterprise/docs/javaee-doc-api.jar" />
    <property name="libs.struts.classpath" value="/home/tarda/Baixades/netbeans/enterprise/modules/ext/struts/antlr-2.7.2.jar:/home/tarda/Baixades/netbeans/enterprise/modules/ext/struts/bsf-2.3.0.jar:/home/tarda/Baixades/netbeans/enterprise/modules/ext/struts/commons-beanutils-1.8.0.jar:/home/tarda/Baixades/netbeans/enterprise/modules/ext/struts/commons-chain-1.2.jar:/home/tarda/Baixades/netbeans/enterprise/modules/ext/struts/commons-digester-1.8.jar:/home/tarda/Baixades/netbeans/enterprise/modules/ext/struts/commons-fileupload-1.1.1.jar:/home/tarda/Baixades/netbeans/enterprise/modules/ext/struts/commons-io-1.1.jar:/home/tarda/Baixades/netbeans/enterprise/modules/ext/struts/commons-logging-1.0.4.jar:/home/tarda/Baixades/netbeans/enterprise/modules/ext/struts/commons-validator-1.3.1.jar:/home/tarda/Baixades/netbeans/enterprise/modules/ext/struts/jstl-1.0.2.jar:/home/tarda/Baixades/netbeans/enterprise/modules/ext/struts/oro-2.0.8.jar:/home/tarda/Baixades/netbeans/enterprise/modules/ext/struts/standard-1.0.6.jar:/home/tarda/Baixades/netbeans/enterprise/modules/ext/struts/struts-core-1.3.10.jar:/home/tarda/Baixades/netbeans/enterprise/modules/ext/struts/struts-el-1.3.10.jar:/home/tarda/Baixades/netbeans/enterprise/modules/ext/struts/struts-extras-1.3.10.jar:/home/tarda/Baixades/netbeans/enterprise/modules/ext/struts/struts-faces-1.3.10.jar:/home/tarda/Baixades/netbeans/enterprise/modules/ext/struts/struts-mailreader-dao-1.3.10.jar:/home/tarda/Baixades/netbeans/enterprise/modules/ext/struts/struts-scripting-1.3.10.jar:/home/tarda/Baixades/netbeans/enterprise/modules/ext/struts/struts-taglib-1.3.10.jar:/home/tarda/Baixades/netbeans/enterprise/modules/ext/struts/struts-tiles-1.3.10.jar" />
    <property name="netbeans.importclass" value="org.netbeans.upgrade.AutoUpgrade" />
    <property name="libs.PostgreSQLDriver.maven-pom" value="" />
    <property name="libs.hamcrest.prop-maven-dependencies" value="org.hamcrest:hamcrest-core:1.3:jar" />
    <property name="netbeans.autoupdate.version" value="1.23" />
    <property name="libs.absolutelayout.src" value="" />
    <property name="empty.dir" value="/home/tarda/NetBeansProjects/clase_java/GeoApp/build/empty" />
    <property name="testng.mode" value="testng" />
    <property name="annotation.processing.enabled.in.editor" value="false" />
    <property name="netbeans.user" value="/home/tarda/.netbeans/11.0" />
    <property name="javac.includes.binary" value="/home/tarda/NetBeansProjects/clase_java/GeoApp/build/test/classes/cat/iesjoaquimmir/geoapp/model/businesslayer/entities/RectangleTest.class" />
    <property name="file.separator" value="/" />
    <property name="java.vm.compressedOopsMode" value="32-bit" />
    <property name="line.separator" value="&#xa;" />
    <property name="javadoc.additionalparam" value="" />
    <property name="netbeans.productversion" value="Apache NetBeans IDE 11.0 (Build incubator-netbeans-release-404-on-20190319)" />
    <property name="libs.restlib.maven-pom" value="" />
    <property name="javac.debug" value="true" />
    <property name="libs.testng.classpath" value="/home/tarda/Baixades/netbeans/platform/modules/ext/testng-6.8.1-dist.jar" />
    <property name="mkdist.disabled" value="false" />
    <property name="libs.jsp-compiler.src" value="" />
    <property name="user.name" value="tarda" />
    <property name="libs.javaee-web-api-6.0.javadoc" value="/home/tarda/Baixades/netbeans/enterprise/docs/javaee-doc-api.jar" />
    <property name="build.classes.dir" value="build/classes" />
    <property name="libs.maven-dependencies.javadoc" value="/home/tarda/Baixades/netbeans/enterprise/docs/javaee-doc-api.jar" />
    <property name="securerandom.source" value="file:/dev/./urandom" />
    <property name="nb.junit.single" value="false" />
    <property name="javadoc.windowtitle" value="" />
    <property name="nb.internal.action.name" value="test.single" />
    <property name="libs.groovy-all.classpath" value="/home/tarda/Baixades/netbeans/groovy/modules/ext/groovy.jar:/home/tarda/Baixades/netbeans/groovy/modules/ext/groovy-ant.jar" />
    <property name="libs.javaee-api-7.0.maven-pom" value="" />
    <property name="libs.absolutelayout.javadoc" value="" />
    <property name="libs.jaxws21.src" value="" />
    <property name="libs.maven-dependencies.classpath" value="/home/tarda/Baixades/netbeans/enterprise/modules/ext/javaee6-endorsed/javax.annotation.jar:/home/tarda/Baixades/netbeans/enterprise/modules/ext/javaee6-endorsed/jaxb-api-osgi.jar:/home/tarda/Baixades/netbeans/enterprise/modules/ext/javaee6-endorsed/webservices-api-osgi.jar" />
    <property name="libs.jaxb.maven-pom" value="" />
    <property name="annotation.processing.processor.options" value="" />
    <property name="libs.javaee-api-6.0.maven-pom" value="" />
    <property name="dist.dir" value="dist" />
    <property name="build.dir" value="build" />
    <property name="jna.loaded" value="true" />
    <property name="ant.file.GeoApp-impl" value="/home/tarda/NetBeansProjects/clase_java/GeoApp/nbproject/build-impl.xml" />
    <property name="netbeans.autoupdate.variant" value="" />
    <property name="libs.junit_5.maven-pom" value="" />
    <property name="libs.jpa20-persistence.javadoc" value="" />
    <property name="javadoc.version" value="false" />
    <property name="libs.metro.classpath" value="/home/tarda/Baixades/netbeans/ide/modules/ext/jaxb/activation.jar:/home/tarda/Baixades/netbeans/enterprise/modules/ext/metro/webservices-api.jar:/home/tarda/Baixades/netbeans/enterprise/modules/ext/metro/webservices-extra-api.jar:/home/tarda/Baixades/netbeans/enterprise/modules/ext/metro/webservices-extra.jar:/home/tarda/Baixades/netbeans/enterprise/modules/ext/metro/webservices-rt.jar:/home/tarda/Baixades/netbeans/enterprise/modules/ext/metro/webservices-tools.jar" />
    <property name="libs.metro.src" value="" />
    <property name="ant.junit.enabletestlistenerevents" value="true" />
    <property name="libs.JWSAntTasks.src" value="" />
    <property name="libs.spring-webmvc3.0.src" value="" />
    <property name="ant.home" value="/home/tarda/Baixades/netbeans/extide/ant" />
    <property name="libs.CopyLibs.classpath" value="/home/tarda/NetBeansProjects/clase_java/GeoApp/lib/CopyLibs/org-netbeans-modules-java-j2seproject-copylibstask.jar" />
    <property name="javac.external.vm" value="true" />
    <property name="debug.test.classpath" value=":build/classes:/home/tarda/NetBeansProjects/clase_java/GeoApp/lib/junit_4/junit-4.12.jar:/home/tarda/NetBeansProjects/clase_java/GeoApp/lib/hamcrest/hamcrest-core-1.3.jar:build/test/classes" />
    <property name="have.tests" value="true" />
    <property name="testng.debug.mode" value="" />
    <property name="javac.target" value="1.8" />
    <property name="ant.version" value="Apache Ant(TM) version 1.10.4 compiled on June 19 2018" />
    <property name="libraries.dir" value="/home/tarda/NetBeansProjects/clase_java/GeoApp/lib" />
    <property name="libs.absolutelayout.maven-pom" value="" />
    <property name="jdk.gtk.version" value="2.2" />
    <property name="javac.test.processorpath" value=":build/classes:/home/tarda/NetBeansProjects/clase_java/GeoApp/lib/junit_4/junit-4.12.jar:/home/tarda/NetBeansProjects/clase_java/GeoApp/lib/hamcrest/hamcrest-core-1.3.jar" />
    <property name="libs.javaee-web-api-7.0.maven-pom" value="" />
    <property name="java.failonerror" value="true" />
    <property name="netbeans.dirs" value="/home/tarda/Baixades/netbeans/nb:/home/tarda/Baixades/netbeans/ergonomics:/home/tarda/Baixades/netbeans/ide:/home/tarda/Baixades/netbeans/extide:/home/tarda/Baixades/netbeans/java:/home/tarda/Baixades/netbeans/apisupport:/home/tarda/Baixades/netbeans/webcommon:/home/tarda/Baixades/netbeans/websvccommon:/home/tarda/Baixades/netbeans/enterprise:/home/tarda/Baixades/netbeans/mobility:/home/tarda/Baixades/netbeans/profiler:/home/tarda/Baixades/netbeans/python:/home/tarda/Baixades/netbeans/php:/home/tarda/Baixades/netbeans/identity:/home/tarda/Baixades/netbeans/harness:/home/tarda/Baixades/netbeans/cnd:/home/tarda/Baixades/netbeans/cndext:/home/tarda/Baixades/netbeans/dlight:/home/tarda/Baixades/netbeans/groovy:/home/tarda/Baixades/netbeans/extra:/home/tarda/Baixades/netbeans/javacard:/home/tarda/Baixades/netbeans/javafx:" />
    <property name="javac.modulepath" value="" />
    <property name="libs.javaee-api-6.0.src" value="" />
    <property name="user.properties.file" value="/home/tarda/.netbeans/11.0/build.properties" />
    <property name="javac.includes" value="cat/iesjoaquimmir/geoapp/model/businesslayer/entities/RectangleTest.java" />
    <property name="libraries.dir.nativedirsep" value="/home/tarda/NetBeansProjects/clase_java/GeoApp/lib" />
    <property name="libs.hamcrest.maven-pom" value="" />
    <property name="netbeans.autoupdate.country" value="ES" />
    <property name="javac.processorpath" value="" />
    <property name="java.class.path" value="/home/tarda/NetBeansProjects/clase_java/GeoApp/build/classes:/home/tarda/NetBeansProjects/clase_java/GeoApp/lib/junit_4/junit-4.12.jar:/home/tarda/NetBeansProjects/clase_java/GeoApp/lib/hamcrest/hamcrest-core-1.3.jar:/home/tarda/NetBeansProjects/clase_java/GeoApp/build/test/classes:/home/tarda/Baixades/netbeans/extide/ant/lib/ant-launcher.jar:/home/tarda/Baixades/netbeans/extide/ant/lib/ant.jar:/home/tarda/Baixades/netbeans/extide/ant/lib/ant-junit.jar:/home/tarda/Baixades/netbeans/extide/ant/lib/ant-junit4.jar" />
    <property name="libs.javaee-web-api-6.0.maven-pom" value="" />
    <property name="libs.javaee-api-6.0.javadoc" value="/home/tarda/Baixades/netbeans/enterprise/docs/javaee-doc-api.jar" />
    <property name="libs.JWSAntTasks.maven-pom" value="" />
    <property name="java.vm.vendor" value="Oracle Corporation" />
    <property name="ap.supported.internal" value="true" />
    <property name="netbeans.home+have.tests" value="true" />
    <property name="run.modulepath" value="" />
    <property name="test.binaryexcludes" value="" />
    <property name="do.archive+manifest.available" value="true" />
    <property name="javac.compilerargs" value="" />
    <property name="apple.laf.useScreenMenuBar" value="true" />
    <property name="libs.jstl.maven-pom" value="" />
    <property name="user.country" value="ES" />
    <property name="sun.java.launcher" value="SUN_STANDARD" />
    <property name="libs.restapi.javadoc" value="" />
    <property name="libs.jpa20-persistence.src" value="" />
    <property name="javac.test.sourcepath" value="/home/tarda/NetBeansProjects/clase_java/GeoApp/build/empty" />
    <property name="sun.cpu.endian" value="little" />
    <property name="libs.junit_4.src" value="/home/tarda/NetBeansProjects/clase_java/GeoApp/lib/junit_4/junit-4.12-sources.jar" />
    <property name="libs.spring-webmvc3.0.maven-pom" value="" />
    <property name="user.language" value="ca" />
    <property name="copylibs.rebase" value="true" />
    <property name="libs.javaee-web-api-6.0.src" value="" />
    <property name="includes" value="**" />
    <property name="javadoc.nonavbar" value="false" />
    <property name="ant.java.version" value="13" />
    <property name="libs.junit_4.classpath" value="/home/tarda/NetBeansProjects/clase_java/GeoApp/lib/junit_4/junit-4.12.jar" />
    <property name="libs.jsf12.javadoc" value="/home/tarda/Baixades/netbeans/enterprise/docs/javaee-doc-api.jar" />
    <property name="libs.hamcrest.classpath" value="/home/tarda/NetBeansProjects/clase_java/GeoApp/lib/hamcrest/hamcrest-core-1.3.jar" />
    <property name="javadoc.splitindex" value="true" />
    <property name="libs.JWSAntTasks.classpath" value="/home/tarda/Baixades/netbeans/java/ant/extra/org-netbeans-modules-javawebstart-anttasks.jar" />
    <property name="test.binarytestincludes" value="" />
    <property name="junit.available" value="true" />
    <property name="javac.processormodulepath" value="" />
    <property name="libs.junit_4.maven-pom" value="" />
    <property name="runtime.encoding" value="UTF-8" />
    <property name="libs.jsp-compiler.maven-pom" value="" />
    <property name="javadoc.encoding" value="UTF-8" />
    <property name="javac.classpath" value="" />
    <property name="do.mkdist" value="true" />
    <property name="libs.jstl.src" value="" />
    <property name="libs.jsp-compilation-syscp.maven-pom" value="" />
    <property name="netbeans.hash.code" value="unique=08b29b0df-6cfd-409d-aaf3-992a5e5d86ef_351e3746-d254-469d-aa6f-1125accf7bc5" />
    <property name="nb.junit.batch" value="true" />
    <property name="libs.spring-webmvc3.0.classpath" value="/home/tarda/Baixades/netbeans/java/modules/ext/spring-3.0/spring-webmvc-3.2.7.RELEASE.jar" />
    <property name="build.test.classes.dir" value="build/test/classes" />
    <property name="netbeans.running.environment" value="gnome" />
    <property name="java.runtime.name" value="Java(TM) SE Runtime Environment" />
    <property name="libs.jaxb.javadoc" value="/home/tarda/Baixades/netbeans/ide/docs/jaxb-api-2.2.5-javadoc.jar" />
    <property name="manifest.available" value="true" />
    <property name="libs.spring-framework300.maven-pom" value="" />
    <property name="ant.project.invoked-targets" value="test-single" />
    <property name="run.jvmargs.ide" value="" />
    <property name="libs.jstl.classpath" value="/home/tarda/Baixades/netbeans/enterprise/modules/ext/jstl-impl.jar:/home/tarda/Baixades/netbeans/enterprise/modules/ext/jstl-api.jar" />
    <property name="ap.cmd.line.internal" value="" />
    <property name="jna.platform.library.path" value="/usr/lib/x86_64-linux-gnu:/lib/x86_64-linux-gnu:/lib64:/usr/lib:/lib:/usr/lib/x86_64-linux-gnu/libfakeroot" />
    <property name="libs.PostgreSQLDriver.src" value="" />
    <property name="ant.core.lib" value="/home/tarda/Baixades/netbeans/extide/ant/lib/ant.jar" />
    <property name="java.vendor.url.bug" value="https://bugreport.java.com/bugreport/" />
    <property name="annotation.processing.source.output" value="build/generated-sources/ap-source-output" />
    <property name="libs.jsp-compilation.maven-pom" value="" />
    <property name="netbeans.logger.console" value="true" />
    <property name="user.dir" value="/home/tarda/NetBeansProjects/clase_java/GeoApp" />
    <property name="javac.profile.cmd.line.arg" value="" />
    <property name="platform.java" value="/usr/local/jdk-13/bin/java" />
    <property name="application.args" value="" />
    <property name="do.archive+main.class.available" value="true" />
    <property name="org.xml.sax.driver" value="com.sun.org.apache.xerces.internal.jaxp.SAXParserImpl$JAXPSAXParser" />
    <property name="ignore.failing.tests" value="true" />
    <property name="javac.test.modulepath" value="" />
    <property name="libs.PostgreSQLDriver.javadoc" value="" />
    <property name="libs.eclipselink.src" value="" />
    <property name="libs.jsp-compilation-syscp.classpath" value="/home/tarda/Baixades/netbeans/extide/ant/lib/ant.jar:/home/tarda/Baixades/netbeans/enterprise/modules/ext/servlet3.1-jsp2.3-api.jar:/home/tarda/Baixades/netbeans/enterprise/modules/ext/glassfish-jspparser-4.0.jar:/home/tarda/Baixades/netbeans/enterprise/modules/ext/jstl-impl.jar:/home/tarda/Baixades/netbeans/enterprise/modules/ext/jsf-2_2/javax.faces.jar" />
    <property name="libs.jsp-compilation.classpath" value="/home/tarda/Baixades/netbeans/extide/ant/lib/ant.jar:/home/tarda/Baixades/netbeans/enterprise/modules/ext/servlet3.1-jsp2.3-api.jar:/home/tarda/Baixades/netbeans/enterprise/modules/ext/glassfish-jspparser-4.0.jar:/home/tarda/Baixades/netbeans/enterprise/modules/ext/jsf-2_2/javax.faces.jar:/home/tarda/Baixades/netbeans/enterprise/modules/ext/jstl-api.jar:/home/tarda/Baixades/netbeans/extide/ant/lib/ant-launcher.jar" />
    <property name="java.vm.version" value="13+33" />
    <property name="libs.metro.javadoc" value="/home/tarda/Baixades/netbeans/enterprise/docs/webservices-api-javadoc.jar:/home/tarda/Baixades/netbeans/enterprise/docs/webservices-extra-javadoc.jar:/home/tarda/Baixades/netbeans/enterprise/docs/webservices-extra-api-javadoc.jar:/home/tarda/Baixades/netbeans/enterprise/docs/webservices-rt-javadoc.jar:/home/tarda/Baixades/netbeans/enterprise/docs/webservices-tools-javadoc.jar" />
    <property name="test.class" value="cat.iesjoaquimmir.geoapp.model.businesslayer.entities.RectangleTest" />
    <property name="sun.awt.datatransfer.timeout" value="1000" />
    <property name="junit.forkmode" value="perTest" />
    <property name="libs.jsp-compiler.classpath" value="/home/tarda/Baixades/netbeans/enterprise/ant/extra/jspcompile.jar" />
    <property name="annotation.processing.run.all.processors" value="true" />
    <property name="libs.javaee-web-api-7.0.src" value="" />
  </properties>
  <testcase classname="cat.iesjoaquimmir.geoapp.model.businesslayer.entities.RectangleTest" name="rectangle_setLado1_25" time="0.002" />
  <testcase classname="cat.iesjoaquimmir.geoapp.model.businesslayer.entities.RectangleTest" name="rectangle_setLado2_25" time="0.001" />
  <testcase classname="cat.iesjoaquimmir.geoapp.model.businesslayer.entities.RectangleTest" name="rectangle_setLado2_menor_0" time="0.002" />
  <testcase classname="cat.iesjoaquimmir.geoapp.model.businesslayer.entities.RectangleTest" name="rectangle_calc_per" time="0.0" />
  <testcase classname="cat.iesjoaquimmir.geoapp.model.businesslayer.entities.RectangleTest" name="ctor_1params_lado1_error" time="0.0" />
  <testcase classname="cat.iesjoaquimmir.geoapp.model.businesslayer.entities.RectangleTest" name="attribute_lado2_private" time="0.001" />
  <testcase classname="cat.iesjoaquimmir.geoapp.model.businesslayer.entities.RectangleTest" name="rectangle_calc_area" time="0.0" />
  <testcase classname="cat.iesjoaquimmir.geoapp.model.businesslayer.entities.RectangleTest" name="rectangle_setLado1_menor_0" time="0.001" />
  <testcase classname="cat.iesjoaquimmir.geoapp.model.businesslayer.entities.RectangleTest" name="attribute_static_LADO2_VALUE" time="0.0" />
  <testcase classname="cat.iesjoaquimmir.geoapp.model.businesslayer.entities.RectangleTest" name="ctor_2params_error" time="0.0" />
  <testcase classname="cat.iesjoaquimmir.geoapp.model.businesslayer.entities.RectangleTest" name="attribute_static_MIN_VALUE_final" time="0.0" />
  <testcase classname="cat.iesjoaquimmir.geoapp.model.businesslayer.entities.RectangleTest" name="rectangle_toString" time="0.01" />
  <testcase classname="cat.iesjoaquimmir.geoapp.model.businesslayer.entities.RectangleTest" name="attribute_lado1_private" time="0.0" />
  <testcase classname="cat.iesjoaquimmir.geoapp.model.businesslayer.entities.RectangleTest" name="ctor_params_rectangles_error" time="0.0" />
  <testcase classname="cat.iesjoaquimmir.geoapp.model.businesslayer.entities.RectangleTest" name="rectangle_setLado1_0" time="0.0" />
  <testcase classname="cat.iesjoaquimmir.geoapp.model.businesslayer.entities.RectangleTest" name="rectangle_setLado2_0" time="0.001" />
  <system-out><![CDATA[Es carrega el joc de proves ColorTest al Test Runner.
S'està descarregant el joc de proves RectangleTest del test-runner.
]]></system-out>
  <system-err><![CDATA[]]></system-err>
</testsuite>
