\relax 
\providecommand\hyper@newdestlabel[2]{}
\providecommand\HyperFirstAtBeginDocument{\AtBeginDocument}
\HyperFirstAtBeginDocument{\ifx\hyper@anchor\@undefined
\global\let\oldcontentsline\contentsline
\gdef\contentsline#1#2#3#4{\oldcontentsline{#1}{#2}{#3}}
\global\let\oldnewlabel\newlabel
\gdef\newlabel#1#2{\newlabelxx{#1}#2}
\gdef\newlabelxx#1#2#3#4#5#6{\oldnewlabel{#1}{{#2}{#3}}}
\AtEndDocument{\ifx\hyper@anchor\@undefined
\let\contentsline\oldcontentsline
\let\newlabel\oldnewlabel
\fi}
\fi}
\global\let\hyper@last\relax 
\gdef\HyperFirstAtBeginDocument#1{#1}
\providecommand\HyField@AuxAddToFields[1]{}
\providecommand\HyField@AuxAddToCoFields[2]{}
\providecommand \oddpage@label [2]{}
\@writefile{toc}{\contentsline {chapter}{\numberline {1}Namespace Index}{1}{chapter.1}}
\@writefile{lof}{\addvspace {10\p@ }}
\@writefile{lot}{\addvspace {10\p@ }}
\@writefile{toc}{\contentsline {section}{\numberline {1.1}Namespace List}{1}{section.1.1}}
\@writefile{toc}{\contentsline {chapter}{\numberline {2}Class Index}{3}{chapter.2}}
\@writefile{lof}{\addvspace {10\p@ }}
\@writefile{lot}{\addvspace {10\p@ }}
\@writefile{toc}{\contentsline {section}{\numberline {2.1}Class List}{3}{section.2.1}}
\@writefile{toc}{\contentsline {chapter}{\numberline {3}File Index}{5}{chapter.3}}
\@writefile{lof}{\addvspace {10\p@ }}
\@writefile{lot}{\addvspace {10\p@ }}
\@writefile{toc}{\contentsline {section}{\numberline {3.1}File List}{5}{section.3.1}}
\@writefile{toc}{\contentsline {chapter}{\numberline {4}Namespace Documentation}{7}{chapter.4}}
\@writefile{lof}{\addvspace {10\p@ }}
\@writefile{lot}{\addvspace {10\p@ }}
\@writefile{toc}{\contentsline {section}{\numberline {4.1}Package com}{7}{section.4.1}}
\newlabel{namespacecom}{{4.1}{7}{Package com}{section.4.1}{}}
\@writefile{toc}{\contentsline {section}{\numberline {4.2}Package com.\discretionary {\unhbox \voidb@x \hbox {\relax \fontsize  {7}{8}\selectfont  $\leftarrow \joinrel  \rhook $}}{}{}insjoaquimmir}{7}{section.4.2}}
\newlabel{namespacecom_1_1insjoaquimmir}{{4.2}{7}{Package com.\+insjoaquimmir}{section.4.2}{}}
\@writefile{toc}{\contentsline {section}{\numberline {4.3}Package com.\discretionary {\unhbox \voidb@x \hbox {\relax \fontsize  {7}{8}\selectfont  $\leftarrow \joinrel  \rhook $}}{}{}insjoaquimmir.\discretionary {\unhbox \voidb@x \hbox {\relax \fontsize  {7}{8}\selectfont  $\leftarrow \joinrel  \rhook $}}{}{}cat}{7}{section.4.3}}
\newlabel{namespacecom_1_1insjoaquimmir_1_1cat}{{4.3}{7}{Package com.\+insjoaquimmir.\+cat}{section.4.3}{}}
\@writefile{toc}{\contentsline {section}{\numberline {4.4}Package com.\discretionary {\unhbox \voidb@x \hbox {\relax \fontsize  {7}{8}\selectfont  $\leftarrow \joinrel  \rhook $}}{}{}insjoaquimmir.\discretionary {\unhbox \voidb@x \hbox {\relax \fontsize  {7}{8}\selectfont  $\leftarrow \joinrel  \rhook $}}{}{}cat.\discretionary {\unhbox \voidb@x \hbox {\relax \fontsize  {7}{8}\selectfont  $\leftarrow \joinrel  \rhook $}}{}{}practica9}{7}{section.4.4}}
\newlabel{namespacecom_1_1insjoaquimmir_1_1cat_1_1practica9}{{4.4}{7}{Package com.\+insjoaquimmir.\+cat.\+practica9}{section.4.4}{}}
\@writefile{toc}{\contentsline {section}{\numberline {4.5}Package com.\discretionary {\unhbox \voidb@x \hbox {\relax \fontsize  {7}{8}\selectfont  $\leftarrow \joinrel  \rhook $}}{}{}insjoaquimmir.\discretionary {\unhbox \voidb@x \hbox {\relax \fontsize  {7}{8}\selectfont  $\leftarrow \joinrel  \rhook $}}{}{}cat.\discretionary {\unhbox \voidb@x \hbox {\relax \fontsize  {7}{8}\selectfont  $\leftarrow \joinrel  \rhook $}}{}{}practica9.\discretionary {\unhbox \voidb@x \hbox {\relax \fontsize  {7}{8}\selectfont  $\leftarrow \joinrel  \rhook $}}{}{}entities}{7}{section.4.5}}
\newlabel{namespacecom_1_1insjoaquimmir_1_1cat_1_1practica9_1_1entities}{{4.5}{7}{Package com.\+insjoaquimmir.\+cat.\+practica9.\+entities}{section.4.5}{}}
\@writefile{toc}{\contentsline {section}{\numberline {4.6}Package com.\discretionary {\unhbox \voidb@x \hbox {\relax \fontsize  {7}{8}\selectfont  $\leftarrow \joinrel  \rhook $}}{}{}insjoaquimmir.\discretionary {\unhbox \voidb@x \hbox {\relax \fontsize  {7}{8}\selectfont  $\leftarrow \joinrel  \rhook $}}{}{}cat.\discretionary {\unhbox \voidb@x \hbox {\relax \fontsize  {7}{8}\selectfont  $\leftarrow \joinrel  \rhook $}}{}{}practica9.\discretionary {\unhbox \voidb@x \hbox {\relax \fontsize  {7}{8}\selectfont  $\leftarrow \joinrel  \rhook $}}{}{}views}{8}{section.4.6}}
\newlabel{namespacecom_1_1insjoaquimmir_1_1cat_1_1practica9_1_1views}{{4.6}{8}{Package com.\+insjoaquimmir.\+cat.\+practica9.\+views}{section.4.6}{}}
\@writefile{toc}{\contentsline {chapter}{\numberline {5}Class Documentation}{9}{chapter.5}}
\@writefile{lof}{\addvspace {10\p@ }}
\@writefile{lot}{\addvspace {10\p@ }}
\@writefile{toc}{\contentsline {section}{\numberline {5.1}com.\discretionary {\unhbox \voidb@x \hbox {\relax \fontsize  {7}{8}\selectfont  $\leftarrow \joinrel  \rhook $}}{}{}insjoaquimmir.\discretionary {\unhbox \voidb@x \hbox {\relax \fontsize  {7}{8}\selectfont  $\leftarrow \joinrel  \rhook $}}{}{}cat.\discretionary {\unhbox \voidb@x \hbox {\relax \fontsize  {7}{8}\selectfont  $\leftarrow \joinrel  \rhook $}}{}{}practica9.\discretionary {\unhbox \voidb@x \hbox {\relax \fontsize  {7}{8}\selectfont  $\leftarrow \joinrel  \rhook $}}{}{}entities.\discretionary {\unhbox \voidb@x \hbox {\relax \fontsize  {7}{8}\selectfont  $\leftarrow \joinrel  \rhook $}}{}{}Alumne Class Reference}{10}{section.5.1}}
\newlabel{classcom_1_1insjoaquimmir_1_1cat_1_1practica9_1_1entities_1_1Alumne}{{5.1}{10}{com.\+insjoaquimmir.\+cat.\+practica9.\+entities.\+Alumne Class Reference}{section.5.1}{}}
\gdef \LT@i {\LT@entry 
    {3}{47.9353pt}\LT@entry 
    {3}{55.41916pt}}
\@writefile{toc}{\contentsline {subsection}{\numberline {5.1.1}Detailed Description}{11}{subsection.5.1.1}}
\@writefile{toc}{\contentsline {subsection}{\numberline {5.1.2}Constructor \& Destructor Documentation}{11}{subsection.5.1.2}}
\newlabel{classcom_1_1insjoaquimmir_1_1cat_1_1practica9_1_1entities_1_1Alumne_a34b9593508f952516070f63434b7523f}{{5.1.2}{11}{Constructor \& Destructor Documentation}{subsection.5.1.2}{}}
\@writefile{toc}{\contentsline {subsubsection}{\numberline {5.1.2.1}Alumne()\hspace  {0.1cm}{\relax \fontsize  {8}{9.5}\selectfont  \abovedisplayskip 6\p@ plus2\p@ minus4\p@ \abovedisplayshortskip \z@ plus\p@ \belowdisplayshortskip 3\p@ plus\p@ minus2\p@ \def \leftmargin \leftmargini \parsep 4\p@ plus2\p@ minus\p@ \topsep 8\p@ plus2\p@ minus4\p@ \itemsep 4\p@ plus2\p@ minus\p@ {\leftmargin \leftmargini \topsep 3\p@ plus\p@ minus\p@ \parsep 2\p@ plus\p@ minus\p@ \itemsep \parsep }\belowdisplayskip \abovedisplayskip \ttfamily  [1/2]}}{11}{subsubsection.5.1.2.1}}
\gdef \LT@ii {\LT@entry 
    {3}{47.9353pt}\LT@entry 
    {3}{12.4pt}}
\newlabel{classcom_1_1insjoaquimmir_1_1cat_1_1practica9_1_1entities_1_1Alumne_a2c887f8185737e565a9e6aa5c7423ae5}{{5.1.2.1}{12}{\texorpdfstring {Alumne()}{Alumne()}\hspace {0.1cm}{\footnotesize \ttfamily [1/2]}}{table.5.1}{}}
\@writefile{toc}{\contentsline {subsubsection}{\numberline {5.1.2.2}Alumne()\hspace  {0.1cm}{\relax \fontsize  {8}{9.5}\selectfont  \abovedisplayskip 6\p@ plus2\p@ minus4\p@ \abovedisplayshortskip \z@ plus\p@ \belowdisplayshortskip 3\p@ plus\p@ minus2\p@ \def \leftmargin \leftmargini \parsep 4\p@ plus2\p@ minus\p@ \topsep 8\p@ plus2\p@ minus4\p@ \itemsep 4\p@ plus2\p@ minus\p@ {\leftmargin \leftmargini \topsep 3\p@ plus\p@ minus\p@ \parsep 2\p@ plus\p@ minus\p@ \itemsep \parsep }\belowdisplayskip \abovedisplayskip \ttfamily  [2/2]}}{12}{subsubsection.5.1.2.2}}
\@writefile{toc}{\contentsline {subsection}{\numberline {5.1.3}Member Function Documentation}{12}{subsection.5.1.3}}
\newlabel{classcom_1_1insjoaquimmir_1_1cat_1_1practica9_1_1entities_1_1Alumne_aa5b848c51e8f009b90859f509544fde4}{{5.1.3}{12}{Member Function Documentation}{subsection.5.1.3}{}}
\@writefile{toc}{\contentsline {subsubsection}{\numberline {5.1.3.1}get\discretionary {\unhbox \voidb@x \hbox {\relax \fontsize  {7}{8}\selectfont  $\leftarrow \joinrel  \rhook $}}{}{}Dni()}{12}{subsubsection.5.1.3.1}}
\newlabel{classcom_1_1insjoaquimmir_1_1cat_1_1practica9_1_1entities_1_1Alumne_af402620e10928af1433254bac27514c5}{{5.1.3.1}{12}{\texorpdfstring {get\+Dni()}{getDni()}}{subsubsection.5.1.3.1}{}}
\@writefile{toc}{\contentsline {subsubsection}{\numberline {5.1.3.2}get\discretionary {\unhbox \voidb@x \hbox {\relax \fontsize  {7}{8}\selectfont  $\leftarrow \joinrel  \rhook $}}{}{}Domicili()}{12}{subsubsection.5.1.3.2}}
\newlabel{classcom_1_1insjoaquimmir_1_1cat_1_1practica9_1_1entities_1_1Alumne_a6b9f00dd335907d54b930818dc61a98f}{{5.1.3.2}{12}{\texorpdfstring {get\+Domicili()}{getDomicili()}}{subsubsection.5.1.3.2}{}}
\@writefile{toc}{\contentsline {subsubsection}{\numberline {5.1.3.3}get\discretionary {\unhbox \voidb@x \hbox {\relax \fontsize  {7}{8}\selectfont  $\leftarrow \joinrel  \rhook $}}{}{}Edat()}{13}{subsubsection.5.1.3.3}}
\newlabel{classcom_1_1insjoaquimmir_1_1cat_1_1practica9_1_1entities_1_1Alumne_a174f6b751d6b1924490c84d6fdbcec63}{{5.1.3.3}{13}{\texorpdfstring {get\+Edat()}{getEdat()}}{subsubsection.5.1.3.3}{}}
\@writefile{toc}{\contentsline {subsubsection}{\numberline {5.1.3.4}get\discretionary {\unhbox \voidb@x \hbox {\relax \fontsize  {7}{8}\selectfont  $\leftarrow \joinrel  \rhook $}}{}{}Major\discretionary {\unhbox \voidb@x \hbox {\relax \fontsize  {7}{8}\selectfont  $\leftarrow \joinrel  \rhook $}}{}{}Edat()}{13}{subsubsection.5.1.3.4}}
\newlabel{classcom_1_1insjoaquimmir_1_1cat_1_1practica9_1_1entities_1_1Alumne_aedc1323d67bc95b1afc06eef70636dee}{{5.1.3.4}{13}{\texorpdfstring {get\+Major\+Edat()}{getMajorEdat()}}{subsubsection.5.1.3.4}{}}
\@writefile{toc}{\contentsline {subsubsection}{\numberline {5.1.3.5}get\discretionary {\unhbox \voidb@x \hbox {\relax \fontsize  {7}{8}\selectfont  $\leftarrow \joinrel  \rhook $}}{}{}Moduls()}{13}{subsubsection.5.1.3.5}}
\newlabel{classcom_1_1insjoaquimmir_1_1cat_1_1practica9_1_1entities_1_1Alumne_ad74fb8b64e71adf632cd0fdd48afc993}{{5.1.3.5}{13}{\texorpdfstring {get\+Moduls()}{getModuls()}}{subsubsection.5.1.3.5}{}}
\@writefile{toc}{\contentsline {subsubsection}{\numberline {5.1.3.6}get\discretionary {\unhbox \voidb@x \hbox {\relax \fontsize  {7}{8}\selectfont  $\leftarrow \joinrel  \rhook $}}{}{}Nom()}{13}{subsubsection.5.1.3.6}}
\newlabel{classcom_1_1insjoaquimmir_1_1cat_1_1practica9_1_1entities_1_1Alumne_aa1c26d2a8483fd9984ff2da5304a8fd4}{{5.1.3.6}{13}{\texorpdfstring {get\+Nom()}{getNom()}}{subsubsection.5.1.3.6}{}}
\@writefile{toc}{\contentsline {subsubsection}{\numberline {5.1.3.7}get\discretionary {\unhbox \voidb@x \hbox {\relax \fontsize  {7}{8}\selectfont  $\leftarrow \joinrel  \rhook $}}{}{}Nom\discretionary {\unhbox \voidb@x \hbox {\relax \fontsize  {7}{8}\selectfont  $\leftarrow \joinrel  \rhook $}}{}{}\_\discretionary {\unhbox \voidb@x \hbox {\relax \fontsize  {7}{8}\selectfont  $\leftarrow \joinrel  \rhook $}}{}{}\discretionary {\unhbox \voidb@x \hbox {\relax \fontsize  {7}{8}\selectfont  $\leftarrow \joinrel  \rhook $}}{}{}Alumne()}{13}{subsubsection.5.1.3.7}}
\newlabel{classcom_1_1insjoaquimmir_1_1cat_1_1practica9_1_1entities_1_1Alumne_a2d3de4e2e95e3b7aec4e75ea80f35540}{{5.1.3.7}{13}{\texorpdfstring {get\+Nom\+\_\+\+Alumne()}{getNom\_Alumne()}}{subsubsection.5.1.3.7}{}}
\gdef \LT@iii {\LT@entry 
    {3}{24.80576pt}\LT@entry 
    {3}{63.93271pt}}
\@writefile{toc}{\contentsline {subsubsection}{\numberline {5.1.3.8}get\discretionary {\unhbox \voidb@x \hbox {\relax \fontsize  {7}{8}\selectfont  $\leftarrow \joinrel  \rhook $}}{}{}Primer\discretionary {\unhbox \voidb@x \hbox {\relax \fontsize  {7}{8}\selectfont  $\leftarrow \joinrel  \rhook $}}{}{}\_\discretionary {\unhbox \voidb@x \hbox {\relax \fontsize  {7}{8}\selectfont  $\leftarrow \joinrel  \rhook $}}{}{}cognom()}{14}{subsubsection.5.1.3.8}}
\newlabel{classcom_1_1insjoaquimmir_1_1cat_1_1practica9_1_1entities_1_1Alumne_a923aa646ef690d56393740cfe01e9d80}{{5.1.3.8}{14}{\texorpdfstring {get\+Primer\+\_\+cognom()}{getPrimer\_cognom()}}{subsubsection.5.1.3.8}{}}
\@writefile{toc}{\contentsline {subsubsection}{\numberline {5.1.3.9}get\discretionary {\unhbox \voidb@x \hbox {\relax \fontsize  {7}{8}\selectfont  $\leftarrow \joinrel  \rhook $}}{}{}Segon\discretionary {\unhbox \voidb@x \hbox {\relax \fontsize  {7}{8}\selectfont  $\leftarrow \joinrel  \rhook $}}{}{}\_\discretionary {\unhbox \voidb@x \hbox {\relax \fontsize  {7}{8}\selectfont  $\leftarrow \joinrel  \rhook $}}{}{}cognom()}{14}{subsubsection.5.1.3.9}}
\newlabel{classcom_1_1insjoaquimmir_1_1cat_1_1practica9_1_1entities_1_1Alumne_aa53eabf9edf678e1f6c2c17afeb5993f}{{5.1.3.9}{14}{\texorpdfstring {get\+Segon\+\_\+cognom()}{getSegon\_cognom()}}{subsubsection.5.1.3.9}{}}
\@writefile{toc}{\contentsline {subsubsection}{\numberline {5.1.3.10}get\discretionary {\unhbox \voidb@x \hbox {\relax \fontsize  {7}{8}\selectfont  $\leftarrow \joinrel  \rhook $}}{}{}Telefons()}{14}{subsubsection.5.1.3.10}}
\newlabel{classcom_1_1insjoaquimmir_1_1cat_1_1practica9_1_1entities_1_1Alumne_a46d4fbb782f933a7ed38d23cd36142b1}{{5.1.3.10}{14}{\texorpdfstring {get\+Telefons()}{getTelefons()}}{subsubsection.5.1.3.10}{}}
\@writefile{toc}{\contentsline {subsubsection}{\numberline {5.1.3.11}set\discretionary {\unhbox \voidb@x \hbox {\relax \fontsize  {7}{8}\selectfont  $\leftarrow \joinrel  \rhook $}}{}{}Dni()}{14}{subsubsection.5.1.3.11}}
\newlabel{classcom_1_1insjoaquimmir_1_1cat_1_1practica9_1_1entities_1_1Alumne_a79b49eeb0622c97c0e97f5001174a113}{{5.1.3.11}{14}{\texorpdfstring {set\+Dni()}{setDni()}}{table.5.3}{}}
\@writefile{toc}{\contentsline {subsubsection}{\numberline {5.1.3.12}set\discretionary {\unhbox \voidb@x \hbox {\relax \fontsize  {7}{8}\selectfont  $\leftarrow \joinrel  \rhook $}}{}{}Domicili()}{14}{subsubsection.5.1.3.12}}
\gdef \LT@iv {\LT@entry 
    {3}{42.7965pt}\LT@entry 
    {3}{81.92345pt}}
\gdef \LT@v {\LT@entry 
    {3}{30.3136pt}\LT@entry 
    {3}{69.44055pt}}
\gdef \LT@vi {\LT@entry 
    {3}{41.80653pt}\LT@entry 
    {3}{80.93349pt}}
\gdef \LT@vii {\LT@entry 
    {3}{30.3047pt}\LT@entry 
    {3}{69.43166pt}}
\newlabel{classcom_1_1insjoaquimmir_1_1cat_1_1practica9_1_1entities_1_1Alumne_ab0c7ee3f46787a8e8fe268d2452f5fc0}{{5.1.3.12}{15}{\texorpdfstring {set\+Domicili()}{setDomicili()}}{table.5.4}{}}
\@writefile{toc}{\contentsline {subsubsection}{\numberline {5.1.3.13}set\discretionary {\unhbox \voidb@x \hbox {\relax \fontsize  {7}{8}\selectfont  $\leftarrow \joinrel  \rhook $}}{}{}Edat()}{15}{subsubsection.5.1.3.13}}
\newlabel{classcom_1_1insjoaquimmir_1_1cat_1_1practica9_1_1entities_1_1Alumne_acc0d8495201ea70e4f2914e8efd71966}{{5.1.3.13}{15}{\texorpdfstring {set\+Edat()}{setEdat()}}{table.5.5}{}}
\@writefile{toc}{\contentsline {subsubsection}{\numberline {5.1.3.14}set\discretionary {\unhbox \voidb@x \hbox {\relax \fontsize  {7}{8}\selectfont  $\leftarrow \joinrel  \rhook $}}{}{}Moduls()}{15}{subsubsection.5.1.3.14}}
\newlabel{classcom_1_1insjoaquimmir_1_1cat_1_1practica9_1_1entities_1_1Alumne_ad0cdf26e81665bf3ec9984d3e25e649e}{{5.1.3.14}{15}{\texorpdfstring {set\+Moduls()}{setModuls()}}{table.5.6}{}}
\@writefile{toc}{\contentsline {subsubsection}{\numberline {5.1.3.15}set\discretionary {\unhbox \voidb@x \hbox {\relax \fontsize  {7}{8}\selectfont  $\leftarrow \joinrel  \rhook $}}{}{}Nom()}{15}{subsubsection.5.1.3.15}}
\newlabel{classcom_1_1insjoaquimmir_1_1cat_1_1practica9_1_1entities_1_1Alumne_a1df178483ac3030912b7615af4243f0b}{{5.1.3.15}{15}{\texorpdfstring {set\+Nom()}{setNom()}}{table.5.7}{}}
\@writefile{toc}{\contentsline {subsubsection}{\numberline {5.1.3.16}set\discretionary {\unhbox \voidb@x \hbox {\relax \fontsize  {7}{8}\selectfont  $\leftarrow \joinrel  \rhook $}}{}{}Primer\discretionary {\unhbox \voidb@x \hbox {\relax \fontsize  {7}{8}\selectfont  $\leftarrow \joinrel  \rhook $}}{}{}\_\discretionary {\unhbox \voidb@x \hbox {\relax \fontsize  {7}{8}\selectfont  $\leftarrow \joinrel  \rhook $}}{}{}cognom()}{15}{subsubsection.5.1.3.16}}
\gdef \LT@viii {\LT@entry 
    {3}{75.44783pt}\LT@entry 
    {3}{114.57478pt}}
\gdef \LT@ix {\LT@entry 
    {3}{74.33199pt}\LT@entry 
    {3}{113.45894pt}}
\gdef \LT@x {\LT@entry 
    {3}{39.54741pt}\LT@entry 
    {3}{78.67436pt}}
\newlabel{classcom_1_1insjoaquimmir_1_1cat_1_1practica9_1_1entities_1_1Alumne_ac926305cca10a0642473ff659db59814}{{5.1.3.16}{16}{\texorpdfstring {set\+Primer\+\_\+cognom()}{setPrimer\_cognom()}}{table.5.8}{}}
\@writefile{toc}{\contentsline {subsubsection}{\numberline {5.1.3.17}set\discretionary {\unhbox \voidb@x \hbox {\relax \fontsize  {7}{8}\selectfont  $\leftarrow \joinrel  \rhook $}}{}{}Segon\discretionary {\unhbox \voidb@x \hbox {\relax \fontsize  {7}{8}\selectfont  $\leftarrow \joinrel  \rhook $}}{}{}\_\discretionary {\unhbox \voidb@x \hbox {\relax \fontsize  {7}{8}\selectfont  $\leftarrow \joinrel  \rhook $}}{}{}cognom()}{16}{subsubsection.5.1.3.17}}
\newlabel{classcom_1_1insjoaquimmir_1_1cat_1_1practica9_1_1entities_1_1Alumne_a60b2ed86979908910fe677d2cd0f73b9}{{5.1.3.17}{16}{\texorpdfstring {set\+Segon\+\_\+cognom()}{setSegon\_cognom()}}{table.5.9}{}}
\@writefile{toc}{\contentsline {subsubsection}{\numberline {5.1.3.18}set\discretionary {\unhbox \voidb@x \hbox {\relax \fontsize  {7}{8}\selectfont  $\leftarrow \joinrel  \rhook $}}{}{}Telefons()}{16}{subsubsection.5.1.3.18}}
\@writefile{toc}{\contentsline {subsection}{\numberline {5.1.4}Member Data Documentation}{16}{subsection.5.1.4}}
\newlabel{classcom_1_1insjoaquimmir_1_1cat_1_1practica9_1_1entities_1_1Alumne_a947c9c40c08ce72a78d99efc4fbdfed4}{{5.1.4}{16}{Member Data Documentation}{subsection.5.1.4}{}}
\@writefile{toc}{\contentsline {subsubsection}{\numberline {5.1.4.1}D\discretionary {\unhbox \voidb@x \hbox {\relax \fontsize  {7}{8}\selectfont  $\leftarrow \joinrel  \rhook $}}{}{}E\discretionary {\unhbox \voidb@x \hbox {\relax \fontsize  {7}{8}\selectfont  $\leftarrow \joinrel  \rhook $}}{}{}F\discretionary {\unhbox \voidb@x \hbox {\relax \fontsize  {7}{8}\selectfont  $\leftarrow \joinrel  \rhook $}}{}{}A\discretionary {\unhbox \voidb@x \hbox {\relax \fontsize  {7}{8}\selectfont  $\leftarrow \joinrel  \rhook $}}{}{}U\discretionary {\unhbox \voidb@x \hbox {\relax \fontsize  {7}{8}\selectfont  $\leftarrow \joinrel  \rhook $}}{}{}L\discretionary {\unhbox \voidb@x \hbox {\relax \fontsize  {7}{8}\selectfont  $\leftarrow \joinrel  \rhook $}}{}{}T\discretionary {\unhbox \voidb@x \hbox {\relax \fontsize  {7}{8}\selectfont  $\leftarrow \joinrel  \rhook $}}{}{}\_\discretionary {\unhbox \voidb@x \hbox {\relax \fontsize  {7}{8}\selectfont  $\leftarrow \joinrel  \rhook $}}{}{}\discretionary {\unhbox \voidb@x \hbox {\relax \fontsize  {7}{8}\selectfont  $\leftarrow \joinrel  \rhook $}}{}{}D\discretionary {\unhbox \voidb@x \hbox {\relax \fontsize  {7}{8}\selectfont  $\leftarrow \joinrel  \rhook $}}{}{}NI}{16}{subsubsection.5.1.4.1}}
\newlabel{classcom_1_1insjoaquimmir_1_1cat_1_1practica9_1_1entities_1_1Alumne_ab0f15c8500a542283560c603c5c681cb}{{5.1.4.1}{16}{\texorpdfstring {D\+E\+F\+A\+U\+L\+T\+\_\+\+D\+NI}{DEFAULT\_DNI}}{subsubsection.5.1.4.1}{}}
\@writefile{toc}{\contentsline {subsubsection}{\numberline {5.1.4.2}D\discretionary {\unhbox \voidb@x \hbox {\relax \fontsize  {7}{8}\selectfont  $\leftarrow \joinrel  \rhook $}}{}{}E\discretionary {\unhbox \voidb@x \hbox {\relax \fontsize  {7}{8}\selectfont  $\leftarrow \joinrel  \rhook $}}{}{}F\discretionary {\unhbox \voidb@x \hbox {\relax \fontsize  {7}{8}\selectfont  $\leftarrow \joinrel  \rhook $}}{}{}A\discretionary {\unhbox \voidb@x \hbox {\relax \fontsize  {7}{8}\selectfont  $\leftarrow \joinrel  \rhook $}}{}{}U\discretionary {\unhbox \voidb@x \hbox {\relax \fontsize  {7}{8}\selectfont  $\leftarrow \joinrel  \rhook $}}{}{}L\discretionary {\unhbox \voidb@x \hbox {\relax \fontsize  {7}{8}\selectfont  $\leftarrow \joinrel  \rhook $}}{}{}T\discretionary {\unhbox \voidb@x \hbox {\relax \fontsize  {7}{8}\selectfont  $\leftarrow \joinrel  \rhook $}}{}{}\_\discretionary {\unhbox \voidb@x \hbox {\relax \fontsize  {7}{8}\selectfont  $\leftarrow \joinrel  \rhook $}}{}{}\discretionary {\unhbox \voidb@x \hbox {\relax \fontsize  {7}{8}\selectfont  $\leftarrow \joinrel  \rhook $}}{}{}D\discretionary {\unhbox \voidb@x \hbox {\relax \fontsize  {7}{8}\selectfont  $\leftarrow \joinrel  \rhook $}}{}{}OM}{16}{subsubsection.5.1.4.2}}
\newlabel{classcom_1_1insjoaquimmir_1_1cat_1_1practica9_1_1entities_1_1Alumne_a3b09b51667b3910a9ff6cb3871da6379}{{5.1.4.2}{16}{\texorpdfstring {D\+E\+F\+A\+U\+L\+T\+\_\+\+D\+OM}{DEFAULT\_DOM}}{subsubsection.5.1.4.2}{}}
\@writefile{toc}{\contentsline {subsubsection}{\numberline {5.1.4.3}D\discretionary {\unhbox \voidb@x \hbox {\relax \fontsize  {7}{8}\selectfont  $\leftarrow \joinrel  \rhook $}}{}{}E\discretionary {\unhbox \voidb@x \hbox {\relax \fontsize  {7}{8}\selectfont  $\leftarrow \joinrel  \rhook $}}{}{}F\discretionary {\unhbox \voidb@x \hbox {\relax \fontsize  {7}{8}\selectfont  $\leftarrow \joinrel  \rhook $}}{}{}A\discretionary {\unhbox \voidb@x \hbox {\relax \fontsize  {7}{8}\selectfont  $\leftarrow \joinrel  \rhook $}}{}{}U\discretionary {\unhbox \voidb@x \hbox {\relax \fontsize  {7}{8}\selectfont  $\leftarrow \joinrel  \rhook $}}{}{}L\discretionary {\unhbox \voidb@x \hbox {\relax \fontsize  {7}{8}\selectfont  $\leftarrow \joinrel  \rhook $}}{}{}T\discretionary {\unhbox \voidb@x \hbox {\relax \fontsize  {7}{8}\selectfont  $\leftarrow \joinrel  \rhook $}}{}{}\_\discretionary {\unhbox \voidb@x \hbox {\relax \fontsize  {7}{8}\selectfont  $\leftarrow \joinrel  \rhook $}}{}{}\discretionary {\unhbox \voidb@x \hbox {\relax \fontsize  {7}{8}\selectfont  $\leftarrow \joinrel  \rhook $}}{}{}E\discretionary {\unhbox \voidb@x \hbox {\relax \fontsize  {7}{8}\selectfont  $\leftarrow \joinrel  \rhook $}}{}{}D\discretionary {\unhbox \voidb@x \hbox {\relax \fontsize  {7}{8}\selectfont  $\leftarrow \joinrel  \rhook $}}{}{}AT}{17}{subsubsection.5.1.4.3}}
\newlabel{classcom_1_1insjoaquimmir_1_1cat_1_1practica9_1_1entities_1_1Alumne_a1ae3e467550ceebca4855c81b518ed36}{{5.1.4.3}{17}{\texorpdfstring {D\+E\+F\+A\+U\+L\+T\+\_\+\+E\+D\+AT}{DEFAULT\_EDAT}}{subsubsection.5.1.4.3}{}}
\@writefile{toc}{\contentsline {subsubsection}{\numberline {5.1.4.4}D\discretionary {\unhbox \voidb@x \hbox {\relax \fontsize  {7}{8}\selectfont  $\leftarrow \joinrel  \rhook $}}{}{}E\discretionary {\unhbox \voidb@x \hbox {\relax \fontsize  {7}{8}\selectfont  $\leftarrow \joinrel  \rhook $}}{}{}F\discretionary {\unhbox \voidb@x \hbox {\relax \fontsize  {7}{8}\selectfont  $\leftarrow \joinrel  \rhook $}}{}{}A\discretionary {\unhbox \voidb@x \hbox {\relax \fontsize  {7}{8}\selectfont  $\leftarrow \joinrel  \rhook $}}{}{}U\discretionary {\unhbox \voidb@x \hbox {\relax \fontsize  {7}{8}\selectfont  $\leftarrow \joinrel  \rhook $}}{}{}L\discretionary {\unhbox \voidb@x \hbox {\relax \fontsize  {7}{8}\selectfont  $\leftarrow \joinrel  \rhook $}}{}{}T\discretionary {\unhbox \voidb@x \hbox {\relax \fontsize  {7}{8}\selectfont  $\leftarrow \joinrel  \rhook $}}{}{}\_\discretionary {\unhbox \voidb@x \hbox {\relax \fontsize  {7}{8}\selectfont  $\leftarrow \joinrel  \rhook $}}{}{}\discretionary {\unhbox \voidb@x \hbox {\relax \fontsize  {7}{8}\selectfont  $\leftarrow \joinrel  \rhook $}}{}{}T\discretionary {\unhbox \voidb@x \hbox {\relax \fontsize  {7}{8}\selectfont  $\leftarrow \joinrel  \rhook $}}{}{}EL}{17}{subsubsection.5.1.4.4}}
\@writefile{toc}{\contentsline {section}{\numberline {5.2}com.\discretionary {\unhbox \voidb@x \hbox {\relax \fontsize  {7}{8}\selectfont  $\leftarrow \joinrel  \rhook $}}{}{}insjoaquimmir.\discretionary {\unhbox \voidb@x \hbox {\relax \fontsize  {7}{8}\selectfont  $\leftarrow \joinrel  \rhook $}}{}{}cat.\discretionary {\unhbox \voidb@x \hbox {\relax \fontsize  {7}{8}\selectfont  $\leftarrow \joinrel  \rhook $}}{}{}practica9.\discretionary {\unhbox \voidb@x \hbox {\relax \fontsize  {7}{8}\selectfont  $\leftarrow \joinrel  \rhook $}}{}{}views.\discretionary {\unhbox \voidb@x \hbox {\relax \fontsize  {7}{8}\selectfont  $\leftarrow \joinrel  \rhook $}}{}{}Aplicattion Class Reference}{17}{section.5.2}}
\newlabel{classcom_1_1insjoaquimmir_1_1cat_1_1practica9_1_1views_1_1Aplicattion}{{5.2}{17}{com.\+insjoaquimmir.\+cat.\+practica9.\+views.\+Aplicattion Class Reference}{section.5.2}{}}
\@writefile{toc}{\contentsline {subsection}{\numberline {5.2.1}Detailed Description}{17}{subsection.5.2.1}}
\@writefile{toc}{\contentsline {subsection}{\numberline {5.2.2}Member Function Documentation}{17}{subsection.5.2.2}}
\newlabel{classcom_1_1insjoaquimmir_1_1cat_1_1practica9_1_1views_1_1Aplicattion_a62837b08925d6816f5db77d525482387}{{5.2.2}{17}{Member Function Documentation}{subsection.5.2.2}{}}
\@writefile{toc}{\contentsline {subsubsection}{\numberline {5.2.2.1}main()}{17}{subsubsection.5.2.2.1}}
\gdef \LT@xi {\LT@entry 
    {3}{30.3047pt}\LT@entry 
    {1}{15.58247pt}}
\@writefile{toc}{\contentsline {section}{\numberline {5.3}com.\discretionary {\unhbox \voidb@x \hbox {\relax \fontsize  {7}{8}\selectfont  $\leftarrow \joinrel  \rhook $}}{}{}insjoaquimmir.\discretionary {\unhbox \voidb@x \hbox {\relax \fontsize  {7}{8}\selectfont  $\leftarrow \joinrel  \rhook $}}{}{}cat.\discretionary {\unhbox \voidb@x \hbox {\relax \fontsize  {7}{8}\selectfont  $\leftarrow \joinrel  \rhook $}}{}{}practica9.\discretionary {\unhbox \voidb@x \hbox {\relax \fontsize  {7}{8}\selectfont  $\leftarrow \joinrel  \rhook $}}{}{}entities.\discretionary {\unhbox \voidb@x \hbox {\relax \fontsize  {7}{8}\selectfont  $\leftarrow \joinrel  \rhook $}}{}{}Domicili Class Reference}{18}{section.5.3}}
\newlabel{classcom_1_1insjoaquimmir_1_1cat_1_1practica9_1_1entities_1_1Domicili}{{5.3}{18}{com.\+insjoaquimmir.\+cat.\+practica9.\+entities.\+Domicili Class Reference}{section.5.3}{}}
\gdef \LT@xii {\LT@entry 
    {3}{58.32117pt}\LT@entry 
    {3}{58.39818pt}}
\gdef \LT@xiii {\LT@entry 
    {3}{58.32117pt}\LT@entry 
    {3}{12.4pt}}
\@writefile{toc}{\contentsline {subsection}{\numberline {5.3.1}Detailed Description}{19}{subsection.5.3.1}}
\@writefile{toc}{\contentsline {subsection}{\numberline {5.3.2}Constructor \& Destructor Documentation}{19}{subsection.5.3.2}}
\newlabel{classcom_1_1insjoaquimmir_1_1cat_1_1practica9_1_1entities_1_1Domicili_a8da97aef5a10c8014590230481feb269}{{5.3.2}{19}{Constructor \& Destructor Documentation}{subsection.5.3.2}{}}
\@writefile{toc}{\contentsline {subsubsection}{\numberline {5.3.2.1}Domicili()\hspace  {0.1cm}{\relax \fontsize  {8}{9.5}\selectfont  \abovedisplayskip 6\p@ plus2\p@ minus4\p@ \abovedisplayshortskip \z@ plus\p@ \belowdisplayshortskip 3\p@ plus\p@ minus2\p@ \def \leftmargin \leftmargini \parsep 4\p@ plus2\p@ minus\p@ \topsep 8\p@ plus2\p@ minus4\p@ \itemsep 4\p@ plus2\p@ minus\p@ {\leftmargin \leftmargini \topsep 3\p@ plus\p@ minus\p@ \parsep 2\p@ plus\p@ minus\p@ \itemsep \parsep }\belowdisplayskip \abovedisplayskip \ttfamily  [1/3]}}{19}{subsubsection.5.3.2.1}}
\newlabel{classcom_1_1insjoaquimmir_1_1cat_1_1practica9_1_1entities_1_1Domicili_a51ce1af5cf08d9d17e56a08491797490}{{5.3.2.1}{19}{\texorpdfstring {Domicili()}{Domicili()}\hspace {0.1cm}{\footnotesize \ttfamily [1/3]}}{table.5.12}{}}
\@writefile{toc}{\contentsline {subsubsection}{\numberline {5.3.2.2}Domicili()\hspace  {0.1cm}{\relax \fontsize  {8}{9.5}\selectfont  \abovedisplayskip 6\p@ plus2\p@ minus4\p@ \abovedisplayshortskip \z@ plus\p@ \belowdisplayshortskip 3\p@ plus\p@ minus2\p@ \def \leftmargin \leftmargini \parsep 4\p@ plus2\p@ minus\p@ \topsep 8\p@ plus2\p@ minus4\p@ \itemsep 4\p@ plus2\p@ minus\p@ {\leftmargin \leftmargini \topsep 3\p@ plus\p@ minus\p@ \parsep 2\p@ plus\p@ minus\p@ \itemsep \parsep }\belowdisplayskip \abovedisplayskip \ttfamily  [2/3]}}{19}{subsubsection.5.3.2.2}}
\newlabel{classcom_1_1insjoaquimmir_1_1cat_1_1practica9_1_1entities_1_1Domicili_a627ebe2fc197828fbe03333358c2a636}{{5.3.2.2}{20}{\texorpdfstring {Domicili()}{Domicili()}\hspace {0.1cm}{\footnotesize \ttfamily [2/3]}}{table.5.13}{}}
\@writefile{toc}{\contentsline {subsubsection}{\numberline {5.3.2.3}Domicili()\hspace  {0.1cm}{\relax \fontsize  {8}{9.5}\selectfont  \abovedisplayskip 6\p@ plus2\p@ minus4\p@ \abovedisplayshortskip \z@ plus\p@ \belowdisplayshortskip 3\p@ plus\p@ minus2\p@ \def \leftmargin \leftmargini \parsep 4\p@ plus2\p@ minus\p@ \topsep 8\p@ plus2\p@ minus4\p@ \itemsep 4\p@ plus2\p@ minus\p@ {\leftmargin \leftmargini \topsep 3\p@ plus\p@ minus\p@ \parsep 2\p@ plus\p@ minus\p@ \itemsep \parsep }\belowdisplayskip \abovedisplayskip \ttfamily  [3/3]}}{20}{subsubsection.5.3.2.3}}
\@writefile{toc}{\contentsline {subsection}{\numberline {5.3.3}Member Function Documentation}{20}{subsection.5.3.3}}
\newlabel{classcom_1_1insjoaquimmir_1_1cat_1_1practica9_1_1entities_1_1Domicili_a46598b15faf54afc12fb255f2011a52e}{{5.3.3}{20}{Member Function Documentation}{subsection.5.3.3}{}}
\@writefile{toc}{\contentsline {subsubsection}{\numberline {5.3.3.1}get\discretionary {\unhbox \voidb@x \hbox {\relax \fontsize  {7}{8}\selectfont  $\leftarrow \joinrel  \rhook $}}{}{}Carrrer()}{20}{subsubsection.5.3.3.1}}
\newlabel{classcom_1_1insjoaquimmir_1_1cat_1_1practica9_1_1entities_1_1Domicili_a33308d2286871d6af19942446553e3e3}{{5.3.3.1}{20}{\texorpdfstring {get\+Carrrer()}{getCarrrer()}}{subsubsection.5.3.3.1}{}}
\@writefile{toc}{\contentsline {subsubsection}{\numberline {5.3.3.2}get\discretionary {\unhbox \voidb@x \hbox {\relax \fontsize  {7}{8}\selectfont  $\leftarrow \joinrel  \rhook $}}{}{}Codi\discretionary {\unhbox \voidb@x \hbox {\relax \fontsize  {7}{8}\selectfont  $\leftarrow \joinrel  \rhook $}}{}{}\_\discretionary {\unhbox \voidb@x \hbox {\relax \fontsize  {7}{8}\selectfont  $\leftarrow \joinrel  \rhook $}}{}{}postal()}{20}{subsubsection.5.3.3.2}}
\newlabel{classcom_1_1insjoaquimmir_1_1cat_1_1practica9_1_1entities_1_1Domicili_ad66b6eb25aefa47d1a4404b2fdc99d04}{{5.3.3.2}{20}{\texorpdfstring {get\+Codi\+\_\+postal()}{getCodi\_postal()}}{subsubsection.5.3.3.2}{}}
\@writefile{toc}{\contentsline {subsubsection}{\numberline {5.3.3.3}get\discretionary {\unhbox \voidb@x \hbox {\relax \fontsize  {7}{8}\selectfont  $\leftarrow \joinrel  \rhook $}}{}{}Domicili()}{20}{subsubsection.5.3.3.3}}
\newlabel{classcom_1_1insjoaquimmir_1_1cat_1_1practica9_1_1entities_1_1Domicili_ae53b0185ea6c7b6d89a1ac3d8367cb3a}{{5.3.3.3}{20}{\texorpdfstring {get\+Domicili()}{getDomicili()}}{subsubsection.5.3.3.3}{}}
\@writefile{toc}{\contentsline {subsubsection}{\numberline {5.3.3.4}get\discretionary {\unhbox \voidb@x \hbox {\relax \fontsize  {7}{8}\selectfont  $\leftarrow \joinrel  \rhook $}}{}{}Numero()}{21}{subsubsection.5.3.3.4}}
\newlabel{classcom_1_1insjoaquimmir_1_1cat_1_1practica9_1_1entities_1_1Domicili_adc338429b4636a3afda329c3b21da8c9}{{5.3.3.4}{21}{\texorpdfstring {get\+Numero()}{getNumero()}}{subsubsection.5.3.3.4}{}}
\@writefile{toc}{\contentsline {subsubsection}{\numberline {5.3.3.5}get\discretionary {\unhbox \voidb@x \hbox {\relax \fontsize  {7}{8}\selectfont  $\leftarrow \joinrel  \rhook $}}{}{}Pis()}{21}{subsubsection.5.3.3.5}}
\newlabel{classcom_1_1insjoaquimmir_1_1cat_1_1practica9_1_1entities_1_1Domicili_a7b66d308fb1cd1b25afb39e59de845e2}{{5.3.3.5}{21}{\texorpdfstring {get\+Pis()}{getPis()}}{subsubsection.5.3.3.5}{}}
\@writefile{toc}{\contentsline {subsubsection}{\numberline {5.3.3.6}get\discretionary {\unhbox \voidb@x \hbox {\relax \fontsize  {7}{8}\selectfont  $\leftarrow \joinrel  \rhook $}}{}{}Poblacio()}{21}{subsubsection.5.3.3.6}}
\newlabel{classcom_1_1insjoaquimmir_1_1cat_1_1practica9_1_1entities_1_1Domicili_ad2d4cde52a821f8d1fa1b6d888a734c7}{{5.3.3.6}{21}{\texorpdfstring {get\+Poblacio()}{getPoblacio()}}{subsubsection.5.3.3.6}{}}
\@writefile{toc}{\contentsline {subsubsection}{\numberline {5.3.3.7}get\discretionary {\unhbox \voidb@x \hbox {\relax \fontsize  {7}{8}\selectfont  $\leftarrow \joinrel  \rhook $}}{}{}Provincia()}{21}{subsubsection.5.3.3.7}}
\newlabel{classcom_1_1insjoaquimmir_1_1cat_1_1practica9_1_1entities_1_1Domicili_abb0b9ac45610abfcb804fce06d9ca86c}{{5.3.3.7}{21}{\texorpdfstring {get\+Provincia()}{getProvincia()}}{subsubsection.5.3.3.7}{}}
\@writefile{toc}{\contentsline {subsubsection}{\numberline {5.3.3.8}set\discretionary {\unhbox \voidb@x \hbox {\relax \fontsize  {7}{8}\selectfont  $\leftarrow \joinrel  \rhook $}}{}{}Carrrer()}{21}{subsubsection.5.3.3.8}}
\gdef \LT@xiv {\LT@entry 
    {3}{39.2955pt}\LT@entry 
    {3}{78.42245pt}}
\gdef \LT@xv {\LT@entry 
    {3}{58.32117pt}\LT@entry 
    {3}{97.44812pt}}
\gdef \LT@xvi {\LT@entry 
    {3}{43.21945pt}\LT@entry 
    {3}{82.3464pt}}
\gdef \LT@xvii {\LT@entry 
    {3}{24.30182pt}\LT@entry 
    {3}{63.42877pt}}
\newlabel{classcom_1_1insjoaquimmir_1_1cat_1_1practica9_1_1entities_1_1Domicili_ab3ff3607667c49b6c943149c8654449b}{{5.3.3.8}{22}{\texorpdfstring {set\+Carrrer()}{setCarrrer()}}{table.5.14}{}}
\@writefile{toc}{\contentsline {subsubsection}{\numberline {5.3.3.9}set\discretionary {\unhbox \voidb@x \hbox {\relax \fontsize  {7}{8}\selectfont  $\leftarrow \joinrel  \rhook $}}{}{}Codi\discretionary {\unhbox \voidb@x \hbox {\relax \fontsize  {7}{8}\selectfont  $\leftarrow \joinrel  \rhook $}}{}{}\_\discretionary {\unhbox \voidb@x \hbox {\relax \fontsize  {7}{8}\selectfont  $\leftarrow \joinrel  \rhook $}}{}{}postal()}{22}{subsubsection.5.3.3.9}}
\newlabel{classcom_1_1insjoaquimmir_1_1cat_1_1practica9_1_1entities_1_1Domicili_a2b44318a359d5e446c07e038ddc7f4bd}{{5.3.3.9}{22}{\texorpdfstring {set\+Codi\+\_\+postal()}{setCodi\_postal()}}{table.5.15}{}}
\@writefile{toc}{\contentsline {subsubsection}{\numberline {5.3.3.10}set\discretionary {\unhbox \voidb@x \hbox {\relax \fontsize  {7}{8}\selectfont  $\leftarrow \joinrel  \rhook $}}{}{}Numero()}{22}{subsubsection.5.3.3.10}}
\newlabel{classcom_1_1insjoaquimmir_1_1cat_1_1practica9_1_1entities_1_1Domicili_af5a768622435934a73ef22ba4119871f}{{5.3.3.10}{22}{\texorpdfstring {set\+Numero()}{setNumero()}}{table.5.16}{}}
\@writefile{toc}{\contentsline {subsubsection}{\numberline {5.3.3.11}set\discretionary {\unhbox \voidb@x \hbox {\relax \fontsize  {7}{8}\selectfont  $\leftarrow \joinrel  \rhook $}}{}{}Pis()}{22}{subsubsection.5.3.3.11}}
\newlabel{classcom_1_1insjoaquimmir_1_1cat_1_1practica9_1_1entities_1_1Domicili_a71c1a2b8f5f45e0afb3266981cd0eb55}{{5.3.3.11}{22}{\texorpdfstring {set\+Pis()}{setPis()}}{table.5.17}{}}
\@writefile{toc}{\contentsline {subsubsection}{\numberline {5.3.3.12}set\discretionary {\unhbox \voidb@x \hbox {\relax \fontsize  {7}{8}\selectfont  $\leftarrow \joinrel  \rhook $}}{}{}Poblacio()}{22}{subsubsection.5.3.3.12}}
\gdef \LT@xviii {\LT@entry 
    {3}{46.13544pt}\LT@entry 
    {3}{85.26239pt}}
\gdef \LT@xix {\LT@entry 
    {3}{48.67348pt}\LT@entry 
    {3}{87.80043pt}}
\newlabel{classcom_1_1insjoaquimmir_1_1cat_1_1practica9_1_1entities_1_1Domicili_ac358d97816501bb3a9f22606d19616a8}{{5.3.3.12}{23}{\texorpdfstring {set\+Poblacio()}{setPoblacio()}}{table.5.18}{}}
\@writefile{toc}{\contentsline {subsubsection}{\numberline {5.3.3.13}set\discretionary {\unhbox \voidb@x \hbox {\relax \fontsize  {7}{8}\selectfont  $\leftarrow \joinrel  \rhook $}}{}{}Provincia()}{23}{subsubsection.5.3.3.13}}
\@writefile{toc}{\contentsline {section}{\numberline {5.4}com.\discretionary {\unhbox \voidb@x \hbox {\relax \fontsize  {7}{8}\selectfont  $\leftarrow \joinrel  \rhook $}}{}{}insjoaquimmir.\discretionary {\unhbox \voidb@x \hbox {\relax \fontsize  {7}{8}\selectfont  $\leftarrow \joinrel  \rhook $}}{}{}cat.\discretionary {\unhbox \voidb@x \hbox {\relax \fontsize  {7}{8}\selectfont  $\leftarrow \joinrel  \rhook $}}{}{}practica9.\discretionary {\unhbox \voidb@x \hbox {\relax \fontsize  {7}{8}\selectfont  $\leftarrow \joinrel  \rhook $}}{}{}entities.\discretionary {\unhbox \voidb@x \hbox {\relax \fontsize  {7}{8}\selectfont  $\leftarrow \joinrel  \rhook $}}{}{}Moduls Class Reference}{23}{section.5.4}}
\newlabel{classcom_1_1insjoaquimmir_1_1cat_1_1practica9_1_1entities_1_1Moduls}{{5.4}{23}{com.\+insjoaquimmir.\+cat.\+practica9.\+entities.\+Moduls Class Reference}{section.5.4}{}}
\gdef \LT@xx {\LT@entry 
    {3}{35.30861pt}\LT@entry 
    {3}{53.91612pt}}
\@writefile{toc}{\contentsline {subsection}{\numberline {5.4.1}Detailed Description}{24}{subsection.5.4.1}}
\@writefile{toc}{\contentsline {subsection}{\numberline {5.4.2}Constructor \& Destructor Documentation}{24}{subsection.5.4.2}}
\newlabel{classcom_1_1insjoaquimmir_1_1cat_1_1practica9_1_1entities_1_1Moduls_a2e7c71963cd09a6c62a1c6e6fbbdb71e}{{5.4.2}{24}{Constructor \& Destructor Documentation}{subsection.5.4.2}{}}
\@writefile{toc}{\contentsline {subsubsection}{\numberline {5.4.2.1}Moduls()}{24}{subsubsection.5.4.2.1}}
\@writefile{toc}{\contentsline {subsection}{\numberline {5.4.3}Member Function Documentation}{24}{subsection.5.4.3}}
\newlabel{classcom_1_1insjoaquimmir_1_1cat_1_1practica9_1_1entities_1_1Moduls_a9d6814c9f013723a63845d5c551d28f0}{{5.4.3}{24}{Member Function Documentation}{subsection.5.4.3}{}}
\@writefile{toc}{\contentsline {subsubsection}{\numberline {5.4.3.1}get\discretionary {\unhbox \voidb@x \hbox {\relax \fontsize  {7}{8}\selectfont  $\leftarrow \joinrel  \rhook $}}{}{}Descripcio()}{24}{subsubsection.5.4.3.1}}
\newlabel{classcom_1_1insjoaquimmir_1_1cat_1_1practica9_1_1entities_1_1Moduls_a573e2fbf80a0334a04053661cffb16e5}{{5.4.3.1}{24}{\texorpdfstring {get\+Descripcio()}{getDescripcio()}}{subsubsection.5.4.3.1}{}}
\@writefile{toc}{\contentsline {subsubsection}{\numberline {5.4.3.2}get\discretionary {\unhbox \voidb@x \hbox {\relax \fontsize  {7}{8}\selectfont  $\leftarrow \joinrel  \rhook $}}{}{}Hores()}{24}{subsubsection.5.4.3.2}}
\newlabel{classcom_1_1insjoaquimmir_1_1cat_1_1practica9_1_1entities_1_1Moduls_ace4a1f726e13528025b90dcf0c97a8bd}{{5.4.3.2}{24}{\texorpdfstring {get\+Hores()}{getHores()}}{subsubsection.5.4.3.2}{}}
\gdef \LT@xxi {\LT@entry 
    {3}{53.44327pt}\LT@entry 
    {3}{92.57022pt}}
\gdef \LT@xxii {\LT@entry 
    {3}{35.30861pt}\LT@entry 
    {3}{74.43556pt}}
\gdef \LT@xxiii {\LT@entry 
    {3}{30.3047pt}\LT@entry 
    {3}{69.43166pt}}
\@writefile{toc}{\contentsline {subsubsection}{\numberline {5.4.3.3}get\discretionary {\unhbox \voidb@x \hbox {\relax \fontsize  {7}{8}\selectfont  $\leftarrow \joinrel  \rhook $}}{}{}Nom()}{25}{subsubsection.5.4.3.3}}
\newlabel{classcom_1_1insjoaquimmir_1_1cat_1_1practica9_1_1entities_1_1Moduls_a03e328efb4d93f78300b8f4547732c86}{{5.4.3.3}{25}{\texorpdfstring {get\+Nom()}{getNom()}}{subsubsection.5.4.3.3}{}}
\@writefile{toc}{\contentsline {subsubsection}{\numberline {5.4.3.4}set\discretionary {\unhbox \voidb@x \hbox {\relax \fontsize  {7}{8}\selectfont  $\leftarrow \joinrel  \rhook $}}{}{}Descripcio()}{25}{subsubsection.5.4.3.4}}
\newlabel{classcom_1_1insjoaquimmir_1_1cat_1_1practica9_1_1entities_1_1Moduls_ad85ae8f09547a0f8e3abcb010ed0a747}{{5.4.3.4}{25}{\texorpdfstring {set\+Descripcio()}{setDescripcio()}}{table.5.21}{}}
\@writefile{toc}{\contentsline {subsubsection}{\numberline {5.4.3.5}set\discretionary {\unhbox \voidb@x \hbox {\relax \fontsize  {7}{8}\selectfont  $\leftarrow \joinrel  \rhook $}}{}{}Hores()}{25}{subsubsection.5.4.3.5}}
\newlabel{classcom_1_1insjoaquimmir_1_1cat_1_1practica9_1_1entities_1_1Moduls_aa72dffd0d19a6aa6650ed67660de951d}{{5.4.3.5}{25}{\texorpdfstring {set\+Hores()}{setHores()}}{table.5.22}{}}
\@writefile{toc}{\contentsline {subsubsection}{\numberline {5.4.3.6}set\discretionary {\unhbox \voidb@x \hbox {\relax \fontsize  {7}{8}\selectfont  $\leftarrow \joinrel  \rhook $}}{}{}Nom()}{25}{subsubsection.5.4.3.6}}
\@writefile{toc}{\contentsline {chapter}{\numberline {6}File Documentation}{27}{chapter.6}}
\@writefile{lof}{\addvspace {10\p@ }}
\@writefile{lot}{\addvspace {10\p@ }}
\@writefile{toc}{\contentsline {section}{\numberline {6.1}/home/tarda/\discretionary {\unhbox \voidb@x \hbox {\relax \fontsize  {7}{8}\selectfont  $\leftarrow \joinrel  \rhook $}}{}{}Net\discretionary {\unhbox \voidb@x \hbox {\relax \fontsize  {7}{8}\selectfont  $\leftarrow \joinrel  \rhook $}}{}{}Beans\discretionary {\unhbox \voidb@x \hbox {\relax \fontsize  {7}{8}\selectfont  $\leftarrow \joinrel  \rhook $}}{}{}Projects/clase\discretionary {\unhbox \voidb@x \hbox {\relax \fontsize  {7}{8}\selectfont  $\leftarrow \joinrel  \rhook $}}{}{}\_\discretionary {\unhbox \voidb@x \hbox {\relax \fontsize  {7}{8}\selectfont  $\leftarrow \joinrel  \rhook $}}{}{}java/\discretionary {\unhbox \voidb@x \hbox {\relax \fontsize  {7}{8}\selectfont  $\leftarrow \joinrel  \rhook $}}{}{}Practica9/src/main/java/com/insjoaquimmir/cat/practica9/entities/\discretionary {\unhbox \voidb@x \hbox {\relax \fontsize  {7}{8}\selectfont  $\leftarrow \joinrel  \rhook $}}{}{}Alumne.java File Reference}{27}{section.6.1}}
\newlabel{Alumne_8java}{{6.1}{27}{/home/tarda/\+Net\+Beans\+Projects/clase\+\_\+java/\+Practica9/src/main/java/com/insjoaquimmir/cat/practica9/entities/\+Alumne.java File Reference}{section.6.1}{}}
\@writefile{toc}{\contentsline {section}{\numberline {6.2}/home/tarda/\discretionary {\unhbox \voidb@x \hbox {\relax \fontsize  {7}{8}\selectfont  $\leftarrow \joinrel  \rhook $}}{}{}Net\discretionary {\unhbox \voidb@x \hbox {\relax \fontsize  {7}{8}\selectfont  $\leftarrow \joinrel  \rhook $}}{}{}Beans\discretionary {\unhbox \voidb@x \hbox {\relax \fontsize  {7}{8}\selectfont  $\leftarrow \joinrel  \rhook $}}{}{}Projects/clase\discretionary {\unhbox \voidb@x \hbox {\relax \fontsize  {7}{8}\selectfont  $\leftarrow \joinrel  \rhook $}}{}{}\_\discretionary {\unhbox \voidb@x \hbox {\relax \fontsize  {7}{8}\selectfont  $\leftarrow \joinrel  \rhook $}}{}{}java/\discretionary {\unhbox \voidb@x \hbox {\relax \fontsize  {7}{8}\selectfont  $\leftarrow \joinrel  \rhook $}}{}{}Practica9/src/main/java/com/insjoaquimmir/cat/practica9/entities/\discretionary {\unhbox \voidb@x \hbox {\relax \fontsize  {7}{8}\selectfont  $\leftarrow \joinrel  \rhook $}}{}{}Domicili.java File Reference}{27}{section.6.2}}
\newlabel{Domicili_8java}{{6.2}{27}{/home/tarda/\+Net\+Beans\+Projects/clase\+\_\+java/\+Practica9/src/main/java/com/insjoaquimmir/cat/practica9/entities/\+Domicili.java File Reference}{section.6.2}{}}
\@writefile{toc}{\contentsline {section}{\numberline {6.3}/home/tarda/\discretionary {\unhbox \voidb@x \hbox {\relax \fontsize  {7}{8}\selectfont  $\leftarrow \joinrel  \rhook $}}{}{}Net\discretionary {\unhbox \voidb@x \hbox {\relax \fontsize  {7}{8}\selectfont  $\leftarrow \joinrel  \rhook $}}{}{}Beans\discretionary {\unhbox \voidb@x \hbox {\relax \fontsize  {7}{8}\selectfont  $\leftarrow \joinrel  \rhook $}}{}{}Projects/clase\discretionary {\unhbox \voidb@x \hbox {\relax \fontsize  {7}{8}\selectfont  $\leftarrow \joinrel  \rhook $}}{}{}\_\discretionary {\unhbox \voidb@x \hbox {\relax \fontsize  {7}{8}\selectfont  $\leftarrow \joinrel  \rhook $}}{}{}java/\discretionary {\unhbox \voidb@x \hbox {\relax \fontsize  {7}{8}\selectfont  $\leftarrow \joinrel  \rhook $}}{}{}Practica9/src/main/java/com/insjoaquimmir/cat/practica9/entities/\discretionary {\unhbox \voidb@x \hbox {\relax \fontsize  {7}{8}\selectfont  $\leftarrow \joinrel  \rhook $}}{}{}Moduls.java File Reference}{27}{section.6.3}}
\newlabel{Moduls_8java}{{6.3}{27}{/home/tarda/\+Net\+Beans\+Projects/clase\+\_\+java/\+Practica9/src/main/java/com/insjoaquimmir/cat/practica9/entities/\+Moduls.java File Reference}{section.6.3}{}}
\@writefile{toc}{\contentsline {section}{\numberline {6.4}/home/tarda/\discretionary {\unhbox \voidb@x \hbox {\relax \fontsize  {7}{8}\selectfont  $\leftarrow \joinrel  \rhook $}}{}{}Net\discretionary {\unhbox \voidb@x \hbox {\relax \fontsize  {7}{8}\selectfont  $\leftarrow \joinrel  \rhook $}}{}{}Beans\discretionary {\unhbox \voidb@x \hbox {\relax \fontsize  {7}{8}\selectfont  $\leftarrow \joinrel  \rhook $}}{}{}Projects/clase\discretionary {\unhbox \voidb@x \hbox {\relax \fontsize  {7}{8}\selectfont  $\leftarrow \joinrel  \rhook $}}{}{}\_\discretionary {\unhbox \voidb@x \hbox {\relax \fontsize  {7}{8}\selectfont  $\leftarrow \joinrel  \rhook $}}{}{}java/\discretionary {\unhbox \voidb@x \hbox {\relax \fontsize  {7}{8}\selectfont  $\leftarrow \joinrel  \rhook $}}{}{}Practica9/src/main/java/com/insjoaquimmir/cat/practica9/views/\discretionary {\unhbox \voidb@x \hbox {\relax \fontsize  {7}{8}\selectfont  $\leftarrow \joinrel  \rhook $}}{}{}Aplicattion.java File Reference}{28}{section.6.4}}
\newlabel{Aplicattion_8java}{{6.4}{28}{/home/tarda/\+Net\+Beans\+Projects/clase\+\_\+java/\+Practica9/src/main/java/com/insjoaquimmir/cat/practica9/views/\+Aplicattion.java File Reference}{section.6.4}{}}
\@writefile{toc}{\contentsline {chapter}{Index}{29}{section*.25}}
